___aldiv@counter 280 0 BANK2 1
__size_ofi2_ReadADC 0 0 ABS 0
__CFG_XINST$OFF 0 0 ABS 0
AirTempFilter@airTempAvg 1F9 0 BANK1 1
_i B2 0 BANK0 1
_n 166 0 BANK1 1
_rho_multiplier 1E2 0 BANK1 1
_CalibrationMode B7 0 BANK0 1
__size_of_CloseADC 0 0 ABS 0
SPI_Write16@chan 1FA 0 BANK1 1
__size_of_INJ_SetDutyCycle 0 0 ABS 0
__size_ofi2_BusyADC 0 0 ABS 0
_PR2 FBB 0 ABS 0
__S0 30000E 0 ABS 0
__S1 487 0 ABS 0
_InjectorEnabled 41 0 COMRAM 1
_time_mult_warm 230 0 BANK2 1
PWM_LS_Init@config 280 0 BANK2 1
_LinearInterp 2E54 0 CODE 0
i2ADC_Convert@chan 19 0 COMRAM 1
_SSP1STATbits FC7 0 ABS 0
__Hintentry 0 0 ABS 0
__Lintentry 0 0 ABS 0
_GenCtrlState BE 0 BANK0 1
_SCH_DeleteTask 3416 0 CODE 0
_SCH_ErrorLast C1 0 BANK0 1
___fladd@f1 296 0 BANK2 1
_short_flag_cold 16A 0 BANK1 1
__end_of_ExecuteGenStateOff 4D0C 0 CODE 0
__CFG_PLLCFG$OFF 0 0 ABS 0
_abs 49EE 0 CODE 0
OpenSPI1@smp_phase 1F8 0 BANK1 1
_ExecuteGenStateOff 4D0A 0 CODE 0
_ExecuteGenStateCal 4C8A 0 CODE 0
_USART1_Status C2 0 BANK0 1
_ExecuteGenStateRun 4BB4 0 CODE 0
__end_of_EngTempControl 4AFE 0 CODE 0
_PIE1 F9D 0 ABS 0
SCH_Init@index 1FA 0 BANK1 1
__end_of_ExecuteGenStateCal 4C9A 0 CODE 0
?i2_ReadADC 17 0 COMRAM 1
__end_of_EngTempMonitor 4414 0 CODE 0
__size_of_low_isr 0 0 ABS 0
_BDCFuelPumpEnable 3AAC 0 CODE 0
__size_of_ADC_Convert 0 0 ABS 0
ADC_Convert@chan 1F8 0 BANK1 1
?_LinearInterp 23 0 COMRAM 1
___fladd@f2 29A 0 BANK2 1
_ExecuteGenStateWait 44D4 0 CODE 0
_ExecuteGenStateInit 46C6 0 CODE 0
?_SCH_DeleteTask 1F6 0 BANK1 1
abs@a 1F6 0 BANK1 1
_DAC_Code 70 0 BANK0 1
__size_of_LinearInterp 0 0 ABS 0
i2___flpack@exp 1B 0 COMRAM 1
_TempThrStep12 1EE 0 BANK1 1
?_abs 1F6 0 BANK1 1
_main 4CAA 0 CODE 0
_SCH_AddTask 2F5E 0 CODE 0
_DC_hot_flag2 1CE 0 BANK1 1
__size_of_EnterGenStateRun 0 0 ABS 0
__end_of_ExecuteGenStateWait 4532 0 CODE 0
?___fladd 296 0 BANK2 1
CaptureInit@config 1FE 0 BANK1 1
__end_of_SCH_AddTask 3060 0 CODE 0
start BA 0 CODE 0
?i2_SelChanConvADC 17 0 COMRAM 1
ADC_Init@config1 1FC 0 BANK1 1
__end_ofi2_abs 4B26 0 CODE 0
_IGN_PulseTimeoutCntr BF 0 BANK0 1
_overheat_flag 168 0 BANK1 1
___fltol@f1 296 0 BANK2 1
__size_of_CaptureInit 0 0 ABS 0
___flmul@f1 286 0 BANK2 1
SCH_Update@index 5 0 COMRAM 1
___fldiv@f1 21 0 COMRAM 1
__end_of___aldiv 27D6 0 CODE 0
_ExecuteGenStateDrain 4A80 0 CODE 0
_TMR0H FD7 0 ABS 0
_TMR1H FCF 0 ABS 0
_TMR3H FB3 0 ABS 0
_TMR0L FD6 0 ABS 0
_TMR1L FCE 0 ABS 0
i2___flge 39F4 0 CODE 0
_TMR3L FB2 0 ABS 0
_ExecuteGenStateStart 3F26 0 CODE 0
SetIntOSC@ClockSet 1F6 0 BANK1 1
_hot_flag B0 0 BANK0 1
_TRISB F93 0 ABS 0
_TRISC F94 0 ABS 0
__end_ofi2_LinearInterpInit 1868 0 CODE 0
_TRISD F95 0 ABS 0
__size_of_ExecuteGenStateOff 0 0 ABS 0
__end_of___flmul 1EF8 0 CODE 0
__Hirdata 0 0 CODE 0
__Lirdata 0 0 CODE 0
__HRAM 0 0 ABS 0
__LRAM 1 0 ABS 0
_T0CON FD5 0 ABS 0
_T1CON FCD 0 ABS 0
_T2CON FBA 0 ABS 0
_T3CON FB1 0 ABS 0
_testflag 1F4 0 BANK1 1
__end_of_AirTempInit 42F4 0 CODE 0
_StepTime AA 0 BANK0 1
___flmul@f2 28A 0 BANK2 1
OpenSPI1@bus_mode 1F7 0 BANK1 1
OpenTimer0@config 1F6 0 BANK1 1
_TPS_high 1DA 0 BANK1 1
__size_of_AirTempInit 0 0 ABS 0
___fldiv@f2 25 0 COMRAM 1
i2LinearInterpInit@q_slope 30 0 COMRAM 1
__CFG_WDTPS$32768 0 0 ABS 0
__Hconfig 30000E 0 CONFIG 0
__size_of_BlockTempToTimeInit 0 0 ABS 0
__Lconfig 300000 0 CONFIG 0
__CFG_CP0$ON 0 0 ABS 0
___flpack 2478 0 CODE 0
OpenTimer1@config 1F6 0 BANK1 1
OpenTimer1@config1 1F7 0 BANK1 1
__CFG_FOSC$INTIO67 0 0 ABS 0
__CFG_CP1$ON 0 0 ABS 0
__size_of_ExecuteGenStateCal 0 0 ABS 0
__size_of_GetIgnitionPeriod 0 0 ABS 0
SCH_AddTask@index 1FD 0 BANK1 1
__CFG_CP2$ON 0 0 ABS 0
?___lwmod 1F6 0 BANK1 1
OpenADC@config3 1F8 0 BANK1 1
__CFG_CP3$ON 0 0 ABS 0
___fldiv@f3 2A 0 COMRAM 1
WriteTimer0@timer 1F8 0 BANK1 1
_FuelType BC 0 BANK0 1
__size_of_SCH_Init 0 0 ABS 0
__Hbigram 0 0 ABS 0
WriteTimer0@timer0 1F6 0 BANK1 1
__Lbigram 0 0 ABS 0
__Hrparam 0 0 ABS 0
__Lrparam 0 0 ABS 0
__end_of_ExecuteGenStateInit 4712 0 CODE 0
_GetIgnitionPeriod 401A 0 CODE 0
OpenTimer3@config 1F6 0 BANK1 1
__Hram 0 0 ABS 0
__Lram 0 0 ABS 0
i2_abs 4AFE 0 CODE 0
__Hcomram 0 0 ABS 0
OpenTimer3@config1 1F7 0 BANK1 1
__Lcomram 0 0 ABS 0
?_SCH_AddTask 1F6 0 BANK1 1
__Hsfr 0 0 ABS 0
___flge@ff1 1F6 0 BANK1 1
__Lsfr 0 0 ABS 0
__end_of__stringdata 62E 0 SMALLCONST 0
__end_of_OpenSPI1 4230 0 CODE 0
__Hbss 0 0 RAM 1
__CFG_STVREN$ON 0 0 ABS 0
__Lbss 0 0 RAM 1
SCH_AddTask@delay 1F8 0 BANK1 1
__Hnvrram 0 0 COMRAM 1
__Lnvrram 0 0 COMRAM 1
__CFG_PWRTEN$ON 0 0 ABS 0
SCH_DeleteTask@return_code 1F8 0 BANK1 1
_TimeStep 88 0 BANK0 1
___awtofl 4092 0 CODE 0
WriteTimer1@timer 1F8 0 BANK1 1
___flmul@cntr 294 0 BANK2 1
___lwtofl 45DE 0 CODE 0
_underheat_flag 170 0 BANK1 1
WriteTimer1@timer1 1F6 0 BANK1 1
_TempThrStep9 1F2 0 BANK1 1
_ADC_Init 392E 0 CODE 0
___fldiv@cntr 2E 0 COMRAM 1
_SCH_Init 48DA 0 CODE 0
_INJ_Init 20DA 0 CODE 0
_DIO_Init 489E 0 CODE 0
__end_of_abs 4A20 0 CODE 0
_SPI_Init 3FA2 0 CODE 0
_TimeWait 8C 0 BANK0 1
__size_ofi2_abs 0 0 ABS 0
_RCSTA1 FAB 0 ABS 0
_TXREG1 FAD 0 ABS 0
___flge@ff2 1FA 0 BANK1 1
_SPBRG1 FAF 0 ABS 0
_TXSTA1 FAC 0 ABS 0
__end_of_EnterGenStateStart 494E 0 CODE 0
_DrainMode BA 0 BANK0 1
_ADCON0 FC2 0 ABS 0
i2LinearInterpInit@calWarnDetected C7 0 BANK0 1
_SqrtTableQ10 260 0 BANK2 1
_ADCON1 FC1 0 ABS 0
_ADCON2 FC0 0 ABS 0
_IGN_PulsePeriod 3B 0 COMRAM 1
?___fltol 296 0 BANK2 1
_shutter_counter 16E 0 BANK1 1
_BattVolt25C_Lo 6A 0 BANK0 1
_PIE1bits F9D 0 ABS 0
_PIE2bits FA0 0 ABS 0
_PIE3bits FA3 0 ABS 0
__Heeprom_data 0 0 EEDATA 0
__Leeprom_data 0 0 EEDATA 0
?___flmul 286 0 BANK2 1
_PIR1bits F9E 0 ABS 0
_PIR2bits FA1 0 ABS 0
_PIR3bits FA4 0 ABS 0
_CCPR1H FBF 0 ABS 0
__size_of_ExecuteGenStateWait 0 0 ABS 0
_CCPR4H F59 0 ABS 0
_LATBbits F8A 0 ABS 0
_LATDbits F8C 0 ABS 0
__Hintsave_regs 0 0 BIGRAM 1
__Lintsave_regs 0 0 BIGRAM 1
?___aldiv 1F6 0 BANK1 1
__size_ofi2___awtofl 0 0 ABS 0
_CCPR1L FBE 0 ABS 0
_ANSELA F38 0 ABS 0
?___fldiv 21 0 COMRAM 1
_RCONbits FD0 0 ABS 0
_ANSELB F39 0 ABS 0
?i2___flge 17 0 COMRAM 1
_CCPR4L F58 0 ABS 0
_ANSELC F3A 0 ABS 0
_BattTempHi 64 0 BANK0 1
_BlockTempToTimeInit ADC 0 CODE 0
_ANSELD F3B 0 ABS 0
i2LinearInterpInit@delta_x CC 0 BANK0 1
__Hbigbss 0 0 BIGRAM 1
__Lbigbss 0 0 BIGRAM 1
_ANSELE F3C 0 ABS 0
_TempMult 1DE 0 BANK1 1
__Hintret 0 0 ABS 0
__Lintret 0 0 ABS 0
__Hramtop 600 0 RAM 0
__Lramtop 600 0 RAM 0
__Hstruct 0 0 COMRAM 1
__Lstruct 0 0 COMRAM 1
_high_isr 8 0 CODE 0
__Hbigdata 0 0 BIGRAM 1
__Lbigdata 0 0 BIGRAM 1
__Hmediumconst 0 0 MEDIUMCONST 0
__Lmediumconst 0 0 MEDIUMCONST 0
WriteTimer3@timer 1F8 0 BANK1 1
__Hfarbss 0 0 FARRAM 0
WriteTimer3@timer3 1F6 0 BANK1 1
__Lfarbss 0 0 FARRAM 0
__Hintcode 14 0 CODE 0
__Lintcode 8 0 CODE 0
__Hfardata 0 0 FARRAM 0
_ADRESH FC4 0 ABS 0
__Lfardata 0 0 FARRAM 0
LinearInterpInit@q_slope 290 0 BANK2 1
_T1GCON FCC 0 ABS 0
_T3GCON FB4 0 ABS 0
i2LinearInterpInit@delta_y D0 0 BANK0 1
__pintcode 8 0 CODE 0
SelChanConvADC@channel 1F6 0 BANK1 1
_OSCCON FD3 0 ABS 0
__Habs1 0 0 ABS 0
__Labs1 0 0 ABS 0
_ADRESL FC3 0 ABS 0
__CFG_EBTR0$OFF 0 0 ABS 0
__Htext100 0 0 ABS 0
__Ltext100 0 0 ABS 0
_TPS_VoltHi 82 0 BANK0 1
__ptext100 4B74 0 CODE 0
___flmul@f3_as_product 290 0 BANK2 1
SPI_Init@sync_mode 1FA 0 BANK1 1
ReadECapture1@Cap 19 0 COMRAM 1
__end_of_AirTempFilter 3BEE 0 CODE 0
LinearInterp@d 23 0 COMRAM 1
__Htext101 0 0 ABS 0
__Ltext101 0 0 ABS 0
__HnvFARRAM 0 0 FARRAM 0
__LnvFARRAM 0 0 FARRAM 0
LinearInterpInit@delta_x 29B 0 BANK2 1
__ptext101 0 0 CODE 0
LinearInterpInit@delta_y 29F 0 BANK2 1
?i2___awtofl 2E 0 COMRAM 1
__CFG_EBTR1$OFF 0 0 ABS 0
?___flpack 1F6 0 BANK1 1
_start_hot_flag B4 0 BANK0 1
__CFG_PBADEN$OFF 0 0 ABS 0
EngTempFilter@bufferIndex 1FB 0 BANK1 1
AirTempFilter@bufferIndex 1FB 0 BANK1 1
?i2_LinearInterpInit 26 0 COMRAM 1
__end_of___fltol 2AE0 0 CODE 0
_time_mult_cold 200 0 BANK2 1
i2abs@a 17 0 COMRAM 1
__CFG_CCP2MX$PORTC1 0 0 ABS 0
__end_of_GenControl 4BB4 0 CODE 0
_EngTempADC_Filtered 38 0 COMRAM 1
__CFG_EBTR2$OFF 0 0 ABS 0
__size_of_BatteryMonitorInit 0 0 ABS 0
_AirTempADC_Filtered 95 0 BANK0 1
__size_of___fldiv 0 0 ABS 0
__CFG_CCP3MX$PORTB5 0 0 ABS 0
_UI_InputADC 162 0 BANK1 1
_DAC_Write 2AE0 0 CODE 0
__end_of_dpowers 60A 0 SMALLCONST 0
__end_of___flge 2D40 0 CODE 0
i2___flmul@sign D2 0 BANK0 1
___fladd@sign 29F 0 BANK2 1
__size_of_LinearInterpInit 0 0 ABS 0
SPI_Init@smp_phase 1FC 0 BANK1 1
_CountEnrichment 6E 0 BANK0 1
__Hdata 0 0 ABS 0
__Ldata 0 0 ABS 0
?_SPI_Write16 1F8 0 BANK1 1
__CFG_EBTR3$OFF 0 0 ABS 0
i2___flpack@sign 1C 0 COMRAM 1
___flge 2C14 0 CODE 0
i2___aldiv@sign 21 0 COMRAM 1
_GenControlInit 4CB8 0 CODE 0
_TimeStepRun 8A 0 BANK0 1
?i2_abs 17 0 COMRAM 1
__HcstackBANK0 0 0 ABS 0
__LcstackBANK0 0 0 ABS 0
__end_of_CloseADC 4D04 0 CODE 0
__end_of_ConfigureOscillator 4CE6 0 CODE 0
_TPS_InjPWMInterp 18A 0 BANK1 1
__pcstackBANK0 C3 0 BANK0 1
__Htemp 0 0 COMRAM 1
__Ltemp 0 0 COMRAM 1
__Hrbit 0 0 COMRAM 1
__Lrbit 0 0 COMRAM 1
__end_of_PWM_LS_Init 467A 0 CODE 0
___lmul 4588 0 CODE 0
__Hinit BA 0 CODE 0
__Linit BA 0 CODE 0
__Hintcodelo BA 0 CODE 0
__end_of_GetIgnitionPeriod 4092 0 CODE 0
__Lintcodelo 18 0 CODE 0
___wmul 4230 0 CODE 0
_PWM_LS_Init 462E 0 CODE 0
__Hrbss 0 0 COMRAM 1
__end_of_main 4CB8 0 CODE 0
__size_of___lwtofl 0 0 ABS 0
__Lrbss 0 0 COMRAM 1
__pintcodelo 18 0 CODE 0
_DC_out 2C5 0 BIGRAM 1
__end_of_SCH_Init 4916 0 CODE 0
__Htext 0 0 ABS 0
__Ltext 0 0 ABS 0
__end_of___fldiv 3338 0 CODE 0
?___awtofl 280 0 BANK2 1
i2___aldiv@dividend 17 0 COMRAM 1
__end_of_BusyADC 4CFE 0 CODE 0
___lmul@multiplier 17 0 COMRAM 1
?___lwtofl 280 0 BANK2 1
___wmul@multiplier 1F6 0 BANK1 1
__size_ofi2___flge 0 0 ABS 0
__size_of_ExecuteGenStateInit 0 0 ABS 0
_TMR0_Init 47E8 0 CODE 0
_TMR1_Init 4354 0 CODE 0
__HdataBANK0 0 0 ABS 0
__LdataBANK0 0 0 ABS 0
_TMR3_Init 4474 0 CODE 0
_BlockTemp 42 0 COMRAM 1
___flmul@sign 295 0 BANK2 1
__pdataBANK0 60 0 BANK0 1
__end_of___lwtofl 462E 0 CODE 0
end_of_initialization 340C 0 CODE 0
___aldiv@sign 281 0 BANK2 1
i2_SelChanConvADC 4C40 0 CODE 0
i2___fltol@f1 21 0 COMRAM 1
i2SelChanConvADC@channel 17 0 COMRAM 1
___fldiv@sign 30 0 COMRAM 1
__size_ofi2___fltol 0 0 ABS 0
SCH_DispatchTasks@index 2A4 0 BANK2 1
__size_ofi2___flmul 0 0 ABS 0
i2___aldiv@counter 20 0 COMRAM 1
__size_of_abs 0 0 ABS 0
_SPBRGH1 FB0 0 ABS 0
__size_of_AirTempFilter 0 0 ABS 0
_ClockSpeed 94 0 BANK0 1
__size_of_TimeMultInit 0 0 ABS 0
i2___flmul@f1 C3 0 BANK0 1
___lmul@multiplicand 1B 0 COMRAM 1
?_SetIntOSC 1F6 0 BANK1 1
___wmul@multiplicand 1F8 0 BANK1 1
__size_ofi2___flpack 0 0 ABS 0
SPI_Init@bus_mode 1FB 0 BANK1 1
i2_LinearInterpInit 158C 0 CODE 0
i2___fltol 36A8 0 CODE 0
_EngTempMonitor 43B4 0 CODE 0
_AirTempMonitor 4414 0 CODE 0
_FM_AirTempInterp 13C 0 BANK1 1
__size_of_GenCtrlFSM 0 0 ABS 0
__end_of_InterruptInit 4CD2 0 CODE 0
__size_of___awtofl 0 0 ABS 0
__HdataBANK1 0 0 ABS 0
__LdataBANK1 0 0 ABS 0
i2___flmul 1EF8 0 CODE 0
__size_of_ADC_Init 0 0 ABS 0
__pdataBANK1 196 0 BANK1 1
_EnterGenStateOff 4A20 0 CODE 0
_OpenTimer0 4B4E 0 CODE 0
_BattTempLo 66 0 BANK0 1
_SCH_Tasks 120 0 BANK1 1
__end_of_BatteryMonitorInit 47A4 0 CODE 0
__end_of_AirTempMonitor 4474 0 CODE 0
__size_of_EnterGenStateStart 0 0 ABS 0
_TRISAbits F92 0 ABS 0
_TRISCbits F94 0 ABS 0
i2___aldiv 3780 0 CODE 0
_TRISEbits F96 0 ABS 0
_T0CONbits FD5 0 ABS 0
_T1CONbits FCD 0 ABS 0
_T3CONbits FB1 0 ABS 0
_PotInterp 17E 0 BANK1 1
__size_of_SPI_Write16 0 0 ABS 0
_ReadADC 4C9A 0 CODE 0
__end_of_ExecuteGenStateRun 4BD2 0 CODE 0
_EnterGenStateStart 4916 0 CODE 0
_OpenTimer1 467A 0 CODE 0
_TPS_VoltLo 84 0 BANK0 1
LSD_FaultCommand@faultCommand 1FC 0 BANK1 1
_OpenADC 4102 0 CODE 0
?_OpenSPI1 1F6 0 BANK1 1
_t_ambient 1E6 0 BANK1 1
_PulseMult 1D6 0 BANK1 1
_WriteSPI1 4C0C 0 CODE 0
_cag_offset_cold 196 0 BANK1 1
_BatteryMonitor 34F4 0 CODE 0
_SCH_Start 4CD2 0 CODE 0
_SSP1BUF FC9 0 ABS 0
_SSP2BUF F6F 0 ABS 0
_BusyADC 4CF8 0 CODE 0
__end_of_high_isr 3E28 0 CODE 0
__end_ofi2___awtofl 47E8 0 CODE 0
__Hibigdata 0 0 CODE 0
_CaptureInit 4862 0 CODE 0
__Libigdata 0 0 CODE 0
_EngTempInit 3EA8 0 CODE 0
_WriteSPI2 4BF0 0 CODE 0
_AirTempInit 4292 0 CODE 0
__HdataBANK2 0 0 ABS 0
__LdataBANK2 0 0 ABS 0
__size_ofi2_ADC_Convert 0 0 ABS 0
BDCFuelPumpEnable@PWM_FrequencyDytyCycle 280 0 BANK2 1
__pdataBANK2 200 0 BANK2 1
__size_of_BDCFuelPumpEnable 0 0 ABS 0
__size_of_OpenADC 0 0 ABS 0
_CCP1CON FBD 0 ABS 0
_StepStart A8 0 BANK0 1
_SqrtQ10PolyB0 78 0 BANK0 1
_CCP4CON F57 0 ABS 0
__Hifardata 0 0 CODE 0
__Lifardata 0 0 CODE 0
?_ADC_Convert 1F8 0 BANK1 1
__Hbank0 0 0 ABS 0
__Lbank0 0 0 ABS 0
__Hbank1 0 0 ABS 0
__Lbank1 0 0 ABS 0
WriteSPI1@data_out 1F6 0 BANK1 1
__end_of_TMR0_Init 4826 0 CODE 0
__Hbank2 0 0 ABS 0
_short_flag_hot 16C 0 BANK1 1
__Lbank2 0 0 ABS 0
___flmul@exp 28F 0 BANK2 1
__size_of_OpenTimer0 0 0 ABS 0
__size_of_OpenTimer1 0 0 ABS 0
__size_of_OpenTimer3 0 0 ABS 0
__Hbank3 0 0 ABS 0
__Lbank3 0 0 ABS 0
__size_of_EnterGenStateWait 0 0 ABS 0
WriteSPI2@data_out 1F6 0 BANK1 1
_BlockTemp_0 34 0 COMRAM 1
___fldiv@exp 2F 0 COMRAM 1
i2___flmul@f2 C7 0 BANK0 1
__Hbank4 0 0 ABS 0
__Lbank4 0 0 ABS 0
_time_mult 15C 0 BANK1 1
__end_of___lmul 45DE 0 CODE 0
__Hbank5 0 0 ABS 0
__Lbank5 0 0 ABS 0
__end_of_SPI_Write16 4588 0 CODE 0
_BattVolt25C_Hi 68 0 BANK0 1
i2___awtofl@sign 33 0 COMRAM 1
__Hpowerup BA 0 CODE 0
__Lpowerup BA 0 CODE 0
_OpenTimer3 4712 0 CODE 0
__end_of_EnterGenStateOff 4A50 0 CODE 0
__size_of_BatteryMonitor 0 0 ABS 0
__Htext0 0 0 ABS 0
__Ltext0 0 0 ABS 0
__size_of_BusyADC 0 0 ABS 0
__Htext1 0 0 ABS 0
__Ltext1 0 0 ABS 0
__ptext0 4CAA 0 CODE 0
_INTCON2bits FF1 0 ABS 0
__Htext2 0 0 ABS 0
__Ltext2 0 0 ABS 0
__ptext1 3858 0 CODE 0
__size_of_GenControlInit 0 0 ABS 0
__Htext3 0 0 ABS 0
__Ltext3 0 0 ABS 0
__ptext2 2AE0 0 CODE 0
__Htext4 0 0 ABS 0
__Ltext4 0 0 ABS 0
__ptext3 34F4 0 CODE 0
?_WriteTimer0 1F6 0 BANK1 1
__Htext5 0 0 ABS 0
__CFG_P2BMX$PORTD2 0 0 ABS 0
__Ltext5 0 0 ABS 0
_CapStatus B8 0 BANK0 1
__ptext4 4B96 0 CODE 0
__Htext6 0 0 ABS 0
__Ltext6 0 0 ABS 0
__ptext5 4AD6 0 CODE 0
_BattTempCompOffset 9A 0 BANK0 1
__Htext7 0 0 ABS 0
__size_of_EnterGenStateInit 0 0 ABS 0
__Ltext7 0 0 ABS 0
__ptext6 4168 0 CODE 0
__HbssCOMRAM 0 0 ABS 0
__LbssCOMRAM 0 0 ABS 0
ADC_Init@config3 1FE 0 BANK1 1
__Htext8 0 0 ABS 0
__size_of_SetIntOSC 0 0 ABS 0
__Ltext8 0 0 ABS 0
__ptext7 4C8A 0 CODE 0
_AnaInputs 154 0 BANK1 1
__pbssCOMRAM 34 0 COMRAM 1
__Htext9 0 0 ABS 0
__HcstackBANK1 0 0 ABS 0
__Ltext9 0 0 ABS 0
__LcstackBANK1 0 0 ABS 0
__ptext8 4D0A 0 CODE 0
__CFG_T3CMX$PORTC0 0 0 ABS 0
__ptext9 4BB4 0 CODE 0
__pcstackBANK1 1F6 0 BANK1 1
_INJ_DutyCycle 72 0 BANK0 1
__end_ofi2___fltol 3780 0 CODE 0
__Hclrtext 0 0 ABS 0
i2___flpack 3060 0 CODE 0
__size_of_EngTempInit 0 0 ABS 0
__Lclrtext 0 0 ABS 0
__end_of_TimeMultInit 297E 0 CODE 0
_INJ_DutyCycleHi 74 0 BANK0 1
__end_of_InitApp 36A8 0 CODE 0
__end_of_WriteTimer0 4C8A 0 CODE 0
__end_of_WriteTimer1 4C66 0 CODE 0
__end_of_WriteTimer3 4C78 0 CODE 0
_SCH_Update 2D40 0 CODE 0
__size_of_WriteTimer0 0 0 ABS 0
__size_of_WriteTimer1 0 0 ABS 0
__size_of_WriteTimer3 0 0 ABS 0
__size_of_TMR0_Init 0 0 ABS 0
_SCH_ErrorCount A6 0 BANK0 1
__CFG_HFOFST$ON 0 0 ABS 0
WriteSPI1@TempVar 1F7 0 BANK1 1
SPI_Write16@data 1F8 0 BANK1 1
WriteSPI2@TempVar 1F7 0 BANK1 1
_OSCTUNEbits F9B 0 ABS 0
__end_of__initialization 340C 0 CODE 0
_start_time 92 0 BANK0 1
__CFG_PRICLKEN$ON 0 0 ABS 0
_BattTempCompOffsetHi 60 0 BANK0 1
__end_of_BDCFuelPumpEnable 3B54 0 CODE 0
__end_of_TMR1_Init 43B4 0 CODE 0
_BattTempCompOffsetLo 62 0 BANK0 1
_GenCtrlFSM 4168 0 CODE 0
i2___fltol@exp1 2A 0 COMRAM 1
LinearInterpInit@calWarnDetected 296 0 BANK2 1
_TempParametersInit 315C 0 CODE 0
_PulseInterp 148 0 BANK1 1
__end_ofi2___flge 3AAC 0 CODE 0
__end_of_INJ_Init 22B6 0 CODE 0
__end_of_EnterGenStateRun 4BF0 0 CODE 0
__size_of_INJ_StartSequence 0 0 ABS 0
__end_of_GenControlInit 4CC6 0 CODE 0
i2_ReadADC 4CE6 0 CODE 0
__end_of_CaptureInit 489E 0 CODE 0
SCH_DeleteTask@task_index 1F6 0 BANK1 1
_EngTempControl 4AD6 0 CODE 0
?_WriteTimer1 1F6 0 BANK1 1
__size_of___flge 0 0 ABS 0
___fladd 1260 0 CODE 0
__end_of_BlockTempToTimeInit EC2 0 CODE 0
__Hidata 0 0 CODE 0
__end_of___flpack 262A 0 CODE 0
__Lidata 0 0 CODE 0
_EngTempBufferCounter BB 0 BANK0 1
?___flge 1F6 0 BANK1 1
__Hrdata 0 0 COMRAM 1
_AirTempBufferCounter B6 0 BANK0 1
__Lrdata 0 0 COMRAM 1
__Hidloc 200008 0 IDLOC 0
__Lidloc 200000 0 IDLOC 0
__size_of_LSD_FaultCommand 0 0 ABS 0
__end_of_ReadADC 4CAA 0 CODE 0
EngTempInit@bufferIndex 1FD 0 BANK1 1
_SS_time 1EA 0 BANK1 1
AirTempInit@bufferIndex 1F7 0 BANK1 1
__size_of_high_isr 0 0 ABS 0
int_func 3D9E 0 CODE 0
__size_of_INJ_Init 0 0 ABS 0
__size_of_SCH_AddTask 0 0 ABS 0
i2_BusyADC 4D04 0 CODE 0
___lwmod 3D14 0 CODE 0
__Hparam 0 0 ABS 0
__Lparam 0 0 ABS 0
BDCFuelPumpEnable@PWM_Enable 282 0 BANK2 1
__HcstackCOMRAM 0 0 ABS 0
__LcstackCOMRAM 0 0 ABS 0
_InitApp 35CE 0 CODE 0
___flpack@sign 1FB 0 BANK1 1
__end_of_DIO_Init 48DA 0 CODE 0
_SCH_ErrorCode C0 0 BANK0 1
__pcstackCOMRAM 1 0 COMRAM 1
__HidataBIGRAM 0 0 ABS 0
_INJ_Pot A2 0 BANK0 1
__LidataBIGRAM 0 0 ABS 0
__end_of_SetIntOSC 3D14 0 CODE 0
_StepNum 80 0 BANK0 1
_TempSet 86 0 BANK0 1
__pidataBIGRAM 22B6 0 CODE 0
_SqrtQ10PolyB1 7A 0 BANK0 1
i2___flge@ff1 17 0 COMRAM 1
_EngTemp 9C 0 BANK0 1
___fladd@exp1 2A1 0 BANK2 1
__Hsmallconst 630 0 SMALLCONST 0
__Lsmallconst 600 0 SMALLCONST 0
__psmallconst 600 0 SMALLCONST 0
__end_of_SCH_Start 4CDC 0 CODE 0
OpenADC@config 1F6 0 BANK1 1
___fltol 297E 0 CODE 0
?___lmul 17 0 COMRAM 1
___flmul 1D16 0 CODE 0
__Hnvbit 0 0 COMRAM 1
__Lnvbit 0 0 COMRAM 1
?___wmul 1F6 0 BANK1 1
__Hcinit 0 0 ABS 0
__Lcinit 0 0 ABS 0
_inj_max 90 0 BANK0 1
___aldiv 262A 0 CODE 0
_counter 164 0 BANK1 1
___fldiv 3256 0 CODE 0
__end_ofi2___aldiv 3858 0 CODE 0
i2___flpack@arg 17 0 COMRAM 1
__pcinit 3338 0 CODE 0
__CFG_EBTRB$OFF 0 0 ABS 0
__size_of_ConfigureOscillator 0 0 ABS 0
_PotMult 46 0 COMRAM 1
__ramtop 600 0 RAM 0
__mediumconst 0 0 MEDIUMCONST 0
_low_isr 18 0 CODE 0
__size_of_TempParametersInit 0 0 ABS 0
__size_ofi2___aldiv 0 0 ABS 0
__size_of_main 0 0 ABS 0
_FuelModifier 1D2 0 BANK1 1
__size_of___flmul 0 0 ABS 0
_dpowers 600 0 SMALLCONST 0
___awtofl@sign 285 0 BANK2 1
__Hconst 0 0 CODE 0
__Lconst 0 0 CODE 0
_AbsEngTempError 160 0 BANK1 1
i2___awtofl 47A4 0 CODE 0
i2LinearInterpInit@delta_x_abs C8 0 BANK0 1
i2___flmul@cntr D1 0 BANK0 1
i2___aldiv@divisor 1B 0 COMRAM 1
__end_of_SPI_Init 401A 0 CODE 0
i2LinearInterpInit@delta_y_abs CA 0 BANK0 1
__end_of_SCH_Update 2E54 0 CODE 0
___fltol@exp1 29F 0 BANK2 1
_BatteryMonitorInit 475E 0 CODE 0
__HcstackBANK2 0 0 ABS 0
?i2_ADC_Convert 19 0 COMRAM 1
__LcstackBANK2 0 0 ABS 0
__HidataBANK0 0 0 ABS 0
i2ADC_Convert@timeout 1B 0 COMRAM 1
__LidataBANK0 0 0 ABS 0
__pcstackBANK2 280 0 BANK2 1
__pidataBANK0 4986 0 CODE 0
_SPI_Write16 4532 0 CODE 0
PWM_LS_Init@pos_pulse_width 281 0 BANK2 1
ADC_Convert@timeout 1FA 0 BANK1 1
__size_of_AirTempMonitor 0 0 ABS 0
_GenCtrlFaultCode BD 0 BANK0 1
LinearInterpInit@d 286 0 BANK2 1
__end_of_ReadECapture1 4B96 0 CODE 0
_CagOffsetInit 1868 0 CODE 0
LinearInterpInit@x1 288 0 BANK2 1
LinearInterpInit@y1 28A 0 BANK2 1
LinearInterpInit@x2 28C 0 BANK2 1
LinearInterpInit@y2 28E 0 BANK2 1
__end_ofi2___flmul 20DA 0 CODE 0
__CFG_WRT0$OFF 0 0 ABS 0
___flpack@arg 1F6 0 BANK1 1
_IGN_PulseTimeNew 9E 0 BANK0 1
__size_of_TMR1_Init 0 0 ABS 0
LinearInterp@x 25 0 COMRAM 1
__CFG_WRT1$OFF 0 0 ABS 0
i2___flmul@exp CC 0 BANK0 1
__end_of_SelChanConvADC 4C40 0 CODE 0
_LinearInterpInit EC2 0 CODE 0
i2___flge@ff2 1B 0 COMRAM 1
__size_of_SCH_Update 0 0 ABS 0
___fladd@exp2 2A0 0 BANK2 1
__HbssBANK0 0 0 ABS 0
__LbssBANK0 0 0 ABS 0
_SetIntOSC 3C84 0 CODE 0
_SSP1CON1 FC6 0 ABS 0
_SSP2CON1 F6C 0 ABS 0
__CFG_MCLRE$EXTMCLR 0 0 ABS 0
__end_of_DAC_Write 2C14 0 CODE 0
__CFG_WRT2$OFF 0 0 ABS 0
__pbssBANK0 95 0 BANK0 1
__size_of_DIO_Init 0 0 ABS 0
__end_of_TMR3_Init 44D4 0 CODE 0
_BAUDCON1 FB8 0 ABS 0
_EnterGenStateWait 4826 0 CODE 0
__CFG_WRT3$OFF 0 0 ABS 0
__CFG_FCMEN$OFF 0 0 ABS 0
__size_of_EngTempFilter 0 0 ABS 0
?_ReadECapture1 17 0 COMRAM 1
__end_of___fladd 158C 0 CODE 0
_EngTempFilter 3BEE 0 CODE 0
_AirTempFilter 3B54 0 CODE 0
__HbssBANK1 0 0 ABS 0
__LbssBANK1 0 0 ABS 0
__end_of_SCH_DeleteTask 34F4 0 CODE 0
?i2___fltol 21 0 COMRAM 1
BDCFuelPumpEnable@PWM_Output 284 0 BANK2 1
__end_of_EnterGenStateWait 4862 0 CODE 0
__pbssBANK1 100 0 BANK1 1
_OpenSPI1 41CC 0 CODE 0
__Htext10 0 0 ABS 0
__Ltext10 0 0 ABS 0
__end_of_OpenTimer0 4B74 0 CODE 0
__end_of_OpenTimer1 46C6 0 CODE 0
__end_of_OpenTimer3 475E 0 CODE 0
__Htext20 0 0 ABS 0
__Ltext20 0 0 ABS 0
__ptext10 3F26 0 CODE 0
__end_of_ADC_Convert 49EE 0 CODE 0
__Htext30 0 0 ABS 0
__Htext11 0 0 ABS 0
__Ltext30 0 0 ABS 0
__Ltext11 0 0 ABS 0
__ptext20 467A 0 CODE 0
__Htext40 0 0 ABS 0
__Htext21 0 0 ABS 0
__Ltext40 0 0 ABS 0
__Ltext21 0 0 ABS 0
__ptext11 4BD2 0 CODE 0
__ptext30 2478 0 CODE 0
DAC_Write@config 1FD 0 BANK1 1
?_WriteTimer3 1F6 0 BANK1 1
_ADC_Convert 49BC 0 CODE 0
__Htext50 0 0 ABS 0
__Htext31 0 0 ABS 0
__Htext12 0 0 ABS 0
__Ltext50 0 0 ABS 0
__Ltext31 0 0 ABS 0
__Ltext12 0 0 ABS 0
__ptext21 4C54 0 CODE 0
__ptext40 3B54 0 CODE 0
__Htext60 0 0 ABS 0
__Htext41 0 0 ABS 0
__Htext22 0 0 ABS 0
__Ltext60 0 0 ABS 0
__Ltext41 0 0 ABS 0
__Ltext22 0 0 ABS 0
__end_of_EnterGenStateInit 4986 0 CODE 0
__ptext12 44D4 0 CODE 0
__ptext31 4AAC 0 CODE 0
__ptext50 4862 0 CODE 0
__Htext70 0 0 ABS 0
__Htext51 0 0 ABS 0
__Htext32 0 0 ABS 0
__Htext13 0 0 ABS 0
__Ltext70 0 0 ABS 0
__Ltext51 0 0 ABS 0
__Ltext32 0 0 ABS 0
__Ltext13 0 0 ABS 0
__HbssBANK2 0 0 ABS 0
__ptext22 4A80 0 CODE 0
__ptext41 49BC 0 CODE 0
__ptext60 3EA8 0 CODE 0
__size_of_SCH_Start 0 0 ABS 0
__LbssBANK2 0 0 ABS 0
_RCSTA1bits FAB 0 ABS 0
__Htext80 0 0 ABS 0
__Htext61 0 0 ABS 0
_EnterGenStateRun 4BD2 0 CODE 0
__Htext42 0 0 ABS 0
__Htext23 0 0 ABS 0
__Ltext80 0 0 ABS 0
__Ltext61 0 0 ABS 0
__Ltext42 0 0 ABS 0
__Ltext23 0 0 ABS 0
__ptext13 3D14 0 CODE 0
__ptext32 3AAC 0 CODE 0
__ptext51 4474 0 CODE 0
__ptext70 4CC6 0 CODE 0
__pbssBANK2 2A5 0 BANK2 1
_TXSTA1bits FAC 0 ABS 0
_ADCON0bits FC2 0 ABS 0
__Htext90 0 0 ABS 0
__Htext71 0 0 ABS 0
__Htext52 0 0 ABS 0
__Htext33 0 0 ABS 0
__Htext14 0 0 ABS 0
__Ltext90 0 0 ABS 0
__Ltext71 0 0 ABS 0
__Ltext52 0 0 ABS 0
__Ltext33 0 0 ABS 0
__Ltext14 0 0 ABS 0
__ptext23 46C6 0 CODE 0
__ptext42 4C9A 0 CODE 0
__ptext61 4230 0 CODE 0
__ptext80 2D40 0 CODE 0
__HidataBANK1 0 0 ABS 0
?i2___flmul C3 0 BANK0 1
__LidataBANK1 0 0 ABS 0
__end_ofi2_ReadADC 4CF0 0 CODE 0
__Htext62 0 0 ABS 0
__Htext43 0 0 ABS 0
__Htext24 0 0 ABS 0
_EngTempDataBuffer 2A5 0 BANK2 1
_CAG_Offset 6C 0 BANK0 1
__Ltext62 0 0 ABS 0
__Ltext43 0 0 ABS 0
__Ltext24 0 0 ABS 0
__size_of_SCH_DispatchTasks 0 0 ABS 0
_GenControl 4B96 0 CODE 0
__ptext14 4916 0 CODE 0
__ptext33 315C 0 CODE 0
__ptext52 4712 0 CODE 0
__ptext71 47E8 0 CODE 0
__ptext90 3780 0 CODE 0
__end_ofi2___flpack 315C 0 CODE 0
_AirTempDataBuffer 100 0 BANK1 1
__size_ofi2_SelChanConvADC 0 0 ABS 0
__pidataBANK1 42F4 0 CODE 0
__Htext91 0 0 ABS 0
__Htext72 0 0 ABS 0
__Htext53 0 0 ABS 0
__Htext34 0 0 ABS 0
__Htext15 0 0 ABS 0
__Ltext91 0 0 ABS 0
__Ltext72 0 0 ABS 0
__Ltext53 0 0 ABS 0
__Ltext34 0 0 ABS 0
__Ltext15 0 0 ABS 0
__ptext24 4826 0 CODE 0
__ptext43 4CF8 0 CODE 0
__ptext62 4292 0 CODE 0
?_OpenTimer0 1F6 0 BANK1 1
__Htext82 0 0 ABS 0
__Htext63 0 0 ABS 0
_WriteTimer0 4C78 0 CODE 0
__Htext44 0 0 ABS 0
__Htext25 0 0 ABS 0
__Ltext82 0 0 ABS 0
__Ltext63 0 0 ABS 0
__Ltext44 0 0 ABS 0
__Ltext25 0 0 ABS 0
__ptext15 20DA 0 CODE 0
__ptext34 27D6 0 CODE 0
__ptext53 4C66 0 CODE 0
__ptext72 4B4E 0 CODE 0
__ptext91 4AFE 0 CODE 0
__size_of_InterruptInit 0 0 ABS 0
__end_ofi2_BusyADC 4D0A 0 CODE 0
__Htext92 0 0 ABS 0
__Htext73 0 0 ABS 0
__Htext54 0 0 ABS 0
__Htext35 0 0 ABS 0
__Htext16 0 0 ABS 0
__end_of_TempParametersInit 3256 0 CODE 0
__Ltext92 0 0 ABS 0
__Ltext73 0 0 ABS 0
__Ltext54 0 0 ABS 0
__Ltext35 0 0 ABS 0
__Ltext16 0 0 ABS 0
__ptext25 ADC 0 CODE 0
__ptext44 4C28 0 CODE 0
__ptext63 3FA2 0 CODE 0
__ptext82 1ADC 0 CODE 0
__Htext83 0 0 ABS 0
__Htext64 0 0 ABS 0
__Htext45 0 0 ABS 0
__Htext26 0 0 ABS 0
__Ltext83 0 0 ABS 0
__Ltext64 0 0 ABS 0
__Ltext45 0 0 ABS 0
__Ltext26 0 0 ABS 0
__ptext16 45DE 0 CODE 0
__ptext35 1868 0 CODE 0
__ptext54 4CB8 0 CODE 0
__ptext73 4C78 0 CODE 0
__ptext92 4B26 0 CODE 0
_ChargeEnabled B9 0 BANK0 1
TMR1_Init@config 1FB 0 BANK1 1
TMR3_Init@config 1FB 0 BANK1 1
__Htext93 0 0 ABS 0
__Htext74 0 0 ABS 0
__Htext55 0 0 ABS 0
__Htext36 0 0 ABS 0
__Htext17 0 0 ABS 0
__Ltext93 0 0 ABS 0
__Ltext74 0 0 ABS 0
__Ltext55 0 0 ABS 0
__Ltext36 0 0 ABS 0
TMR0_Init@config1 1FB 0 BANK1 1
__Ltext17 0 0 ABS 0
TMR1_Init@config1 1FC 0 BANK1 1
__ptext26 2C14 0 CODE 0
__ptext45 35CE 0 CODE 0
__ptext64 41CC 0 CODE 0
__ptext83 630 0 CODE 0
TMR3_Init@config1 1FC 0 BANK1 1
__Htext84 0 0 ABS 0
__Htext65 0 0 ABS 0
__Htext46 0 0 ABS 0
__Htext27 0 0 ABS 0
__Ltext84 0 0 ABS 0
__Ltext65 0 0 ABS 0
__Ltext46 0 0 ABS 0
__Ltext27 0 0 ABS 0
__ptext17 297E 0 CODE 0
__ptext36 4A20 0 CODE 0
__ptext55 494E 0 CODE 0
__ptext74 2F5E 0 CODE 0
__ptext93 4C40 0 CODE 0
_ANSELAbits F38 0 ABS 0
__Htext94 0 0 ABS 0
__Htext75 0 0 ABS 0
__Htext56 0 0 ABS 0
__Htext37 0 0 ABS 0
__end_of___lwmod 3D9E 0 CODE 0
__Htext18 0 0 ABS 0
__Ltext94 0 0 ABS 0
__Ltext75 0 0 ABS 0
__Ltext56 0 0 ABS 0
__Ltext37 0 0 ABS 0
__Ltext18 0 0 ABS 0
__ptext27 4092 0 CODE 0
__ptext46 475E 0 CODE 0
__ptext65 392E 0 CODE 0
__ptext84 36A8 0 CODE 0
___lwmod@divisor 1F8 0 BANK1 1
__Htext85 0 0 ABS 0
__Htext66 0 0 ABS 0
__Htext47 0 0 ABS 0
__Htext28 0 0 ABS 0
__Ltext85 0 0 ABS 0
__Ltext66 0 0 ABS 0
__Ltext47 0 0 ABS 0
__Ltext28 0 0 ABS 0
__ptext18 462E 0 CODE 0
__ptext37 43B4 0 CODE 0
__ptext56 4A50 0 CODE 0
__ptext75 48DA 0 CODE 0
__ptext94 4CE6 0 CODE 0
__size_ofi2_LinearInterpInit 0 0 ABS 0
___fltol@sign1 29E 0 BANK2 1
_ANSELEbits F3C 0 ABS 0
__Htext95 0 0 ABS 0
__Htext76 0 0 ABS 0
__Htext57 0 0 ABS 0
__Htext38 0 0 ABS 0
__Htext19 0 0 ABS 0
__Ltext95 0 0 ABS 0
__Ltext76 0 0 ABS 0
__Ltext57 0 0 ABS 0
__Ltext38 0 0 ABS 0
__Ltext19 0 0 ABS 0
__ptext28 1D16 0 CODE 0
__ptext47 EC2 0 CODE 0
__ptext66 4102 0 CODE 0
__ptext85 1EF8 0 CODE 0
_InterruptInit 4CC6 0 CODE 0
__CFG_WDTEN$OFF 0 0 ABS 0
__Htext86 0 0 ABS 0
__Htext67 0 0 ABS 0
__Htext48 0 0 ABS 0
__Htext29 0 0 ABS 0
__Ltext86 0 0 ABS 0
__Ltext67 0 0 ABS 0
__Ltext48 0 0 ABS 0
__Ltext29 0 0 ABS 0
__ptext19 4354 0 CODE 0
__ptext38 3BEE 0 CODE 0
__ptext57 4532 0 CODE 0
__ptext76 3416 0 CODE 0
__ptext95 4D04 0 CODE 0
?i2___aldiv 17 0 COMRAM 1
__Htext96 0 0 ABS 0
__Htext77 0 0 ABS 0
__Htext58 0 0 ABS 0
__Htext39 0 0 ABS 0
__Ltext96 0 0 ABS 0
__Ltext77 0 0 ABS 0
__Ltext58 0 0 ABS 0
__Ltext39 0 0 ABS 0
__size_of_WriteSPI1 0 0 ABS 0
__ptext29 1260 0 CODE 0
__size_of_WriteSPI2 0 0 ABS 0
_SqrtQ10PolyB2 7C 0 BANK0 1
__ptext48 262A 0 CODE 0
__ptext67 4CFE 0 CODE 0
__ptext86 39F4 0 CODE 0
__size_of_CagOffsetInit 0 0 ABS 0
__Htext87 0 0 ABS 0
__Htext68 0 0 ABS 0
__Htext49 0 0 ABS 0
__end_of_LinearInterp 2F5E 0 CODE 0
__Ltext87 0 0 ABS 0
__Ltext68 0 0 ABS 0
__Ltext49 0 0 ABS 0
__ptext39 4414 0 CODE 0
__ptext58 4BF0 0 CODE 0
__ptext77 4CDC 0 CODE 0
__ptext96 3256 0 CODE 0
SCH_AddTask@period 1FA 0 BANK1 1
_T1GCONbits FCC 0 ABS 0
_T3GCONbits FB4 0 ABS 0
__Htext97 0 0 ABS 0
__Htext78 0 0 ABS 0
__Htext59 0 0 ABS 0
__Ltext97 0 0 ABS 0
__Ltext78 0 0 ABS 0
__Ltext59 0 0 ABS 0
__ptext49 49EE 0 CODE 0
__ptext68 489E 0 CODE 0
__ptext87 47A4 0 CODE 0
?_SelChanConvADC 1F6 0 BANK1 1
_INTCONbits FF2 0 ABS 0
__Htext88 0 0 ABS 0
__Htext69 0 0 ABS 0
__Ltext88 0 0 ABS 0
__Ltext69 0 0 ABS 0
__ptext59 4C0C 0 CODE 0
__ptext78 3C84 0 CODE 0
__ptext97 2E54 0 CODE 0
__Htext98 0 0 ABS 0
__Ltext98 0 0 ABS 0
__ptext69 4CD2 0 CODE 0
__ptext88 3060 0 CODE 0
__Hend_init BE 0 CODE 0
_LSD_FaultCommand 4A50 0 CODE 0
__Lend_init BA 0 CODE 0
__Htext89 0 0 ABS 0
?_ReadADC 1F6 0 BANK1 1
__Ltext89 0 0 ABS 0
__ptext98 4588 0 CODE 0
__Htext99 0 0 ABS 0
__Ltext99 0 0 ABS 0
__ptext89 158C 0 CODE 0
?_OpenTimer1 1F6 0 BANK1 1
ADC_Init@config2 1FD 0 BANK1 1
_WriteTimer1 4C54 0 CODE 0
__ptext99 401A 0 CODE 0
___aldiv@divisor 1FA 0 BANK1 1
___flpack@exp 1FA 0 BANK1 1
__end_of_LSD_FaultCommand 4A80 0 CODE 0
?_OpenADC 1F6 0 BANK1 1
_CloseADC 4CFE 0 CODE 0
__HidataCOMRAM 0 0 ABS 0
__LidataCOMRAM 0 0 ABS 0
?_WriteSPI1 1F6 0 BANK1 1
__pidataCOMRAM 4CF0 0 CODE 0
__size_of_SPI_Init 0 0 ABS 0
__end_of_EngTempInit 3F26 0 CODE 0
__size_of___fladd 0 0 ABS 0
__size_of_SCH_DeleteTask 0 0 ABS 0
_SecondsRunTime 3F 0 COMRAM 1
__HdataBIGRAM 0 0 ABS 0
__LdataBIGRAM 0 0 ABS 0
OpenADC@config2 1F7 0 BANK1 1
_INJ_StartSequence 630 0 CODE 0
__pdataBIGRAM 2C5 0 BIGRAM 1
__end_ofi2_ADC_Convert 4B4E 0 CODE 0
__smallconst 600 0 SMALLCONST 0
INJ_StartSequence@interval 98 0 BANK0 1
__end_of_OpenADC 4168 0 CODE 0
?_WriteSPI2 1F6 0 BANK1 1
__size_of___wmul 0 0 ABS 0
__size_of_ExecuteGenStateRun 0 0 ABS 0
__Hreset_vec 4 0 CODE 0
__Lreset_vec 0 0 CODE 0
__HidataBANK2 0 0 ABS 0
__LidataBANK2 0 0 ABS 0
_BattTempCompInterp 172 0 BANK1 1
_EnterGenStateInit 494E 0 CODE 0
__pidataBANK2 3E28 0 CODE 0
_IGN_PulseTimeOld A0 0 BANK0 1
__end_of_INJ_SetDutyCycle 1D16 0 CODE 0
_INJ_SetDutyCycle 1ADC 0 CODE 0
i2_ADC_Convert 4B26 0 CODE 0
__stringdata 60A 0 SMALLCONST 0
__CFG_BORV$190 0 0 ABS 0
EngTempFilter@engTempAvg 1F9 0 BANK1 1
__accesstop 60 0 ABS 0
__size_of___aldiv 0 0 ABS 0
__size_of_ReadECapture1 0 0 ABS 0
__Hintcode_body 0 0 ABS 0
__Lintcode_body 0 0 ABS 0
LinearInterpInit@delta_x_abs 297 0 BANK2 1
LinearInterp@y 2C 0 COMRAM 1
__pintcode_body 3D9E 0 CODE 0
LinearInterpInit@delta_y_abs 299 0 BANK2 1
_TimeMultInit 27D6 0 CODE 0
_SCH_DispatchTasks 3858 0 CODE 0
intlevel0 0 0 CODE 0
__size_of_InitApp 0 0 ABS 0
_SSP1STAT FC7 0 ABS 0
intlevel1 0 0 CODE 0
__CFG_WRTB$OFF 0 0 ABS 0
_ReadECapture1 4B74 0 CODE 0
intlevel2 0 0 CODE 0
__end_of___awtofl 4102 0 CODE 0
_EnterGenStateDrain 4AAC 0 CODE 0
?_LinearInterpInit 286 0 BANK2 1
intlevel3 0 0 CODE 0
?_OpenTimer3 1F6 0 BANK1 1
__size_of___lmul 0 0 ABS 0
_WriteTimer3 4C66 0 CODE 0
__CFG_WRTC$OFF 0 0 ABS 0
__end_of_LinearInterpInit 1260 0 CODE 0
__size_of_OpenSPI1 0 0 ABS 0
_SSP1CON1bits FC6 0 ABS 0
_SSP2CON1bits F6C 0 ABS 0
__CFG_WRTD$OFF 0 0 ABS 0
__size_of_EnterGenStateDrain 0 0 ABS 0
i2LinearInterpInit@d 26 0 COMRAM 1
__size_of_DAC_Write 0 0 ABS 0
_SelChanConvADC 4C28 0 CODE 0
__size_of_PWM_LS_Init 0 0 ABS 0
i2___awtofl@c 2E 0 COMRAM 1
__size_of___flpack 0 0 ABS 0
__HdataCOMRAM 0 0 ABS 0
__LdataCOMRAM 0 0 ABS 0
_CCPTMRS0bits F49 0 ABS 0
__size_of___lwmod 0 0 ABS 0
__size_of___fltol 0 0 ABS 0
__pdataCOMRAM 42 0 COMRAM 1
__CFG_CPB$OFF 0 0 ABS 0
__size_of_GenControl 0 0 ABS 0
i2LinearInterpInit@x1 28 0 COMRAM 1
i2LinearInterpInit@y1 2A 0 COMRAM 1
i2LinearInterpInit@x2 2C 0 COMRAM 1
i2LinearInterpInit@y2 2E 0 COMRAM 1
_VsenseBattADC AE 0 BANK0 1
__end_of_EngTempFilter 3C84 0 CODE 0
_INJ_ThrottleADC 3D 0 COMRAM 1
__end_of___wmul 4292 0 CODE 0
_TempThrStep11 1EC 0 BANK1 1
__size_of_EnterGenStateOff 0 0 ABS 0
__CFG_CPD$OFF 0 0 ABS 0
start_initialization 3338 0 CODE 0
___aldiv@quotient 282 0 BANK2 1
__end_ofi2_SelChanConvADC 4C54 0 CODE 0
__end_of_WriteSPI1 4C28 0 CODE 0
__end_of_WriteSPI2 4C0C 0 CODE 0
LinearInterpInit@max_slope 29D 0 BANK2 1
__CFG_BOREN$SBORDIS 0 0 ABS 0
__end_of_ADC_Init 39F4 0 CODE 0
__end_of_EnterGenStateDrain 4AD6 0 CODE 0
_diagnostic_mode 8E 0 BANK0 1
_SqrtQ10PolyB3 7E 0 BANK0 1
i2___aldiv@quotient 22 0 COMRAM 1
__CFG_IESO$OFF 0 0 ABS 0
i2___flmul@f3_as_product CD 0 BANK0 1
?i2___flpack 17 0 COMRAM 1
_INJ_ThrottleADC_old A4 0 BANK0 1
BatteryMonitor@chargeSwitchState 1FF 0 BANK1 1
__size_of_ReadADC 0 0 ABS 0
i2LinearInterpInit@max_slope CE 0 BANK0 1
__end_of_low_isr BA 0 CODE 0
__initialization 3338 0 CODE 0
SCH_AddTask@pFunction 1F6 0 BANK1 1
_cag_offset_warm 1B0 0 BANK1 1
__end_of_BatteryMonitor 35CE 0 CODE 0
i2___fltol@sign1 29 0 COMRAM 1
___lwmod@dividend 1F6 0 BANK1 1
__end_of_ExecuteGenStateDrain 4AAC 0 CODE 0
___awtofl@c 280 0 BANK2 1
__activetblptr 2 0 ABS 0
_INJ_DutyCycleLo 76 0 BANK0 1
___lwtofl@c 280 0 BANK2 1
__end_of_SCH_DispatchTasks 392E 0 CODE 0
___lmul@product 1F 0 COMRAM 1
__end_of_GenCtrlFSM 41CC 0 CODE 0
__end_of_ExecuteGenStateStart 3FA2 0 CODE 0
__size_of_ExecuteGenStateDrain 0 0 ABS 0
___wmul@product 1FA 0 BANK1 1
___lwmod@counter 1FB 0 BANK1 1
__size_of_SelChanConvADC 0 0 ABS 0
OpenSPI1@sync_mode 1F6 0 BANK1 1
__size_of_EngTempControl 0 0 ABS 0
DAC_Write@data_out_lsb 1FF 0 BANK1 1
DAC_Write@data_out_msb 1FE 0 BANK1 1
__size_of_ExecuteGenStateStart 0 0 ABS 0
_TempThrStep7 1F0 0 BANK1 1
_DC_hot_flag1 1CA 0 BANK1 1
__end_of_CagOffsetInit 1ADC 0 CODE 0
__end_of_INJ_StartSequence ADC 0 CODE 0
DAC_Write@pump_setpoint 1FB 0 BANK1 1
_TimerInState AC 0 BANK0 1
__CFG_LVP$OFF 0 0 ABS 0
__size_of_EngTempMonitor 0 0 ABS 0
_ConfigureOscillator 4CDC 0 CODE 0
___aldiv@dividend 1F6 0 BANK1 1
__size_of_TMR3_Init 0 0 ABS 0
%segments
reset_vec 0 3 CODE 0 0
intcode 8 13 CODE 8 0
intcodelo 18 BD CODE 18 0
smallconst 600 62F SMALLCONST 600 0
config 300000 30000D CONFIG 300000 0
idloc 200000 200007 IDLOC 200000 0
cstackCOMRAM 1 49 COMRAM 1 1
dataBANK0 60 E6 BANK0 60 1
bssBANK1 100 1FF BANK1 100 1
dataBANK2 200 2C4 BANK2 200 1
dataBIGRAM 2C5 486 BIGRAM 2C5 1
text83 630 49BA CODE 630 0
text41 49BC 4D0B CODE 49BC 0
%locals
dist/XC8_18F45K22/production\500W_pot_mult_code.production.obj
C:\Microchip\include\pic18f45k22.h
C:\Users\aandrew\AppData\Local\Temp\s5ck.
8942 3338 0 CODE 0
8943 333C 0 CODE 0
8945 333E 0 CODE 0
8946 3340 0 CODE 0
8947 3342 0 CODE 0
8950 3344 0 CODE 0
8951 3348 0 CODE 0
8953 334A 0 CODE 0
8954 334C 0 CODE 0
8955 334E 0 CODE 0
8958 3350 0 CODE 0
8959 3354 0 CODE 0
8961 3356 0 CODE 0
8962 3358 0 CODE 0
8963 335A 0 CODE 0
8966 335C 0 CODE 0
8967 3360 0 CODE 0
8969 3362 0 CODE 0
8970 3364 0 CODE 0
8971 3366 0 CODE 0
8976 3368 0 CODE 0
8977 336A 0 CODE 0
8978 336C 0 CODE 0
8979 336E 0 CODE 0
8980 3370 0 CODE 0
8981 3372 0 CODE 0
8982 3374 0 CODE 0
8983 3378 0 CODE 0
8985 337C 0 CODE 0
8986 337E 0 CODE 0
8987 3382 0 CODE 0
8988 3384 0 CODE 0
8989 3386 0 CODE 0
8990 3388 0 CODE 0
8991 338A 0 CODE 0
8995 338C 0 CODE 0
8996 338E 0 CODE 0
8997 3390 0 CODE 0
8998 3392 0 CODE 0
8999 3394 0 CODE 0
9000 3396 0 CODE 0
9001 3398 0 CODE 0
9002 339C 0 CODE 0
9004 33A0 0 CODE 0
9005 33A2 0 CODE 0
9006 33A6 0 CODE 0
9007 33A8 0 CODE 0
9008 33AA 0 CODE 0
9012 33AC 0 CODE 0
9013 33AE 0 CODE 0
9014 33B0 0 CODE 0
9015 33B2 0 CODE 0
9016 33B4 0 CODE 0
9017 33B6 0 CODE 0
9018 33B8 0 CODE 0
9019 33BC 0 CODE 0
9021 33C0 0 CODE 0
9022 33C2 0 CODE 0
9023 33C6 0 CODE 0
9024 33C8 0 CODE 0
9025 33CA 0 CODE 0
9029 33CC 0 CODE 0
9030 33CE 0 CODE 0
9031 33D0 0 CODE 0
9032 33D2 0 CODE 0
9033 33D4 0 CODE 0
9034 33D6 0 CODE 0
9035 33D8 0 CODE 0
9036 33DC 0 CODE 0
9038 33E0 0 CODE 0
9039 33E2 0 CODE 0
9040 33E6 0 CODE 0
9041 33E8 0 CODE 0
9042 33EA 0 CODE 0
9046 33EC 0 CODE 0
9047 33EE 0 CODE 0
9048 33F0 0 CODE 0
9049 33F2 0 CODE 0
9050 33F4 0 CODE 0
9051 33F6 0 CODE 0
9052 33F8 0 CODE 0
9053 33FC 0 CODE 0
9055 3400 0 CODE 0
9056 3402 0 CODE 0
9057 3406 0 CODE 0
9058 3408 0 CODE 0
9059 340A 0 CODE 0
9067 340C 0 CODE 0
9068 340E 0 CODE 0
9069 3410 0 CODE 0
9070 3412 0 CODE 0
main.c
15 4CAA 0 CODE 0
17 4CAE 0 CODE 0
20 4CB2 0 CODE 0
scheduler.c
75 3858 0 CODE 0
76 3874 0 CODE 0
77 389A 0 CODE 0
78 38CA 0 CODE 0
80 38EC 0 CODE 0
81 3914 0 CODE 0
75 391C 0 CODE 0
dac.c
93 2AE0 0 CODE 0
94 2AF0 0 CODE 0
95 2AF8 0 CODE 0
96 2B08 0 CODE 0
98 2B18 0 CODE 0
99 2B28 0 CODE 0
100 2B5A 0 CODE 0
102 2B6A 0 CODE 0
103 2B6C 0 CODE 0
104 2B74 0 CODE 0
105 2B7C 0 CODE 0
108 2B7E 0 CODE 0
109 2B8E 0 CODE 0
110 2B9E 0 CODE 0
111 2BAE 0 CODE 0
112 2BBE 0 CODE 0
113 2BEE 0 CODE 0
115 2BFE 0 CODE 0
116 2C00 0 CODE 0
117 2C08 0 CODE 0
118 2C10 0 CODE 0
battery.c
44 34F4 0 CODE 0
45 3500 0 CODE 0
46 3502 0 CODE 0
53 3510 0 CODE 0
54 3530 0 CODE 0
57 3574 0 CODE 0
58 357E 0 CODE 0
59 35CA 0 CODE 0
control.c
87 4B96 0 CODE 0
88 4B9A 0 CODE 0
89 4B9E 0 CODE 0
94 4BA2 0 CODE 0
etemp.c
67 4AD6 0 CODE 0
69 4ADE 0 CODE 0
70 4AF2 0 CODE 0
71 4AF4 0 CODE 0
74 4AF8 0 CODE 0
75 4AFA 0 CODE 0
control.c
277 4168 0 CODE 0
279 416A 0 CODE 0
280 416E 0 CODE 0
282 4170 0 CODE 0
283 4174 0 CODE 0
288 4176 0 CODE 0
290 417A 0 CODE 0
295 417C 0 CODE 0
296 4180 0 CODE 0
298 4182 0 CODE 0
299 4186 0 CODE 0
301 4188 0 CODE 0
302 418C 0 CODE 0
304 418E 0 CODE 0
305 4192 0 CODE 0
307 4194 0 CODE 0
308 4198 0 CODE 0
277 419A 0 CODE 0
control.c
270 4C8A 0 CODE 0
271 4C94 0 CODE 0
control.c
254 4D0A 0 CODE 0
control.c
228 4BB4 0 CODE 0
229 4BBE 0 CODE 0
234 4BC4 0 CODE 0
235 4BCC 0 CODE 0
control.c
196 3F26 0 CODE 0
197 3F30 0 CODE 0
201 3F36 0 CODE 0
202 3F40 0 CODE 0
204 3F4C 0 CODE 0
205 3F5A 0 CODE 0
206 3F5C 0 CODE 0
209 3F68 0 CODE 0
210 3F80 0 CODE 0
214 3F86 0 CODE 0
215 3F9C 0 CODE 0
control.c
221 4BD2 0 CODE 0
222 4BDE 0 CODE 0
224 4BEE 0 CODE 0
control.c
172 44D4 0 CODE 0
173 44DE 0 CODE 0
176 44E4 0 CODE 0
177 450C 0 CODE 0
178 452C 0 CODE 0
C:\Microchip\sources\common\lwmod.c
13 3D14 0 CODE 0
14 3D20 0 CODE 0
15 3D30 0 CODE 0
16 3D32 0 CODE 0
17 3D3E 0 CODE 0
15 3D44 0 CODE 0
20 3D4C 0 CODE 0
21 3D68 0 CODE 0
22 3D80 0 CODE 0
23 3D8C 0 CODE 0
25 3D94 0 CODE 0
26 3D9C 0 CODE 0
control.c
184 4916 0 CODE 0
185 4926 0 CODE 0
186 4928 0 CODE 0
188 492A 0 CODE 0
189 493A 0 CODE 0
191 4948 0 CODE 0
192 494C 0 CODE 0
injector.c
121 20DA 0 CODE 0
122 2130 0 CODE 0
123 2186 0 CODE 0
124 21DC 0 CODE 0
125 2232 0 CODE 0
126 223A 0 CODE 0
127 2290 0 CODE 0
128 22B0 0 CODE 0
129 22B4 0 CODE 0
C:\Microchip\sources\common\lwtofl.c
30 45DE 0 CODE 0
C:\Microchip\sources\common\fltol.c
47 297E 0 CODE 0
48 2992 0 CODE 0
49 29AE 0 CODE 0
50 29E4 0 CODE 0
51 29EA 0 CODE 0
52 2A04 0 CODE 0
53 2A0C 0 CODE 0
54 2A14 0 CODE 0
55 2A22 0 CODE 0
57 2A3E 0 CODE 0
58 2A52 0 CODE 0
60 2A5C 0 CODE 0
61 2A66 0 CODE 0
63 2A82 0 CODE 0
64 2A96 0 CODE 0
62 2A9C 0 CODE 0
67 2AA4 0 CODE 0
68 2AAE 0 CODE 0
69 2ACE 0 CODE 0
peripherals.c
158 462E 0 CODE 0
159 463E 0 CODE 0
166 464C 0 CODE 0
168 465C 0 CODE 0
169 4664 0 CODE 0
170 4668 0 CODE 0
173 4674 0 CODE 0
177 4678 0 CODE 0
peripherals.c
295 4354 0 CODE 0
296 4364 0 CODE 0
298 4374 0 CODE 0
308 4386 0 CODE 0
312 4396 0 CODE 0
313 43A6 0 CODE 0
314 43B2 0 CODE 0
C:\Microchip\sources\pic18\plib\Timers\t1open.c
45 467A 0 CODE 0
47 4684 0 CODE 0
49 4696 0 CODE 0
50 469A 0 CODE 0
52 469E 0 CODE 0
54 46A0 0 CODE 0
55 46A8 0 CODE 0
57 46AC 0 CODE 0
61 46AE 0 CODE 0
71 46B0 0 CODE 0
72 46B8 0 CODE 0
74 46BC 0 CODE 0
88 46BE 0 CODE 0
89 46C0 0 CODE 0
91 46C2 0 CODE 0
93 46C4 0 CODE 0
C:\Microchip\sources\pic18\plib\Timers\t1write.c
18 4C54 0 CODE 0
20 4C5C 0 CODE 0
21 4C60 0 CODE 0
22 4C64 0 CODE 0
control.c
145 4A80 0 CODE 0
146 4A8A 0 CODE 0
149 4A90 0 CODE 0
150 4AA6 0 CODE 0
control.c
109 46C6 0 CODE 0
110 46D0 0 CODE 0
114 46D6 0 CODE 0
118 46DC 0 CODE 0
120 46EC 0 CODE 0
121 46F0 0 CODE 0
122 46F4 0 CODE 0
125 46F8 0 CODE 0
126 4702 0 CODE 0
127 4706 0 CODE 0
128 4708 0 CODE 0
129 470C 0 CODE 0
control.c
156 4826 0 CODE 0
157 4828 0 CODE 0
158 482A 0 CODE 0
160 482E 0 CODE 0
162 4830 0 CODE 0
163 483A 0 CODE 0
166 4848 0 CODE 0
168 4858 0 CODE 0
169 4860 0 CODE 0
control.c
364 ADC 0 CODE 0
366 B54 0 CODE 0
369 B86 0 CODE 0
370 BB8 0 CODE 0
372 BC4 0 CODE 0
373 BF6 0 CODE 0
374 C04 0 CODE 0
375 C10 0 CODE 0
376 C14 0 CODE 0
379 C20 0 CODE 0
380 C52 0 CODE 0
382 C5E 0 CODE 0
383 C90 0 CODE 0
385 C9C 0 CODE 0
386 CCE 0 CODE 0
387 CDC 0 CODE 0
388 CE8 0 CODE 0
389 D1A 0 CODE 0
390 D28 0 CODE 0
391 D34 0 CODE 0
392 D66 0 CODE 0
393 D74 0 CODE 0
394 D80 0 CODE 0
395 DB2 0 CODE 0
396 DC0 0 CODE 0
397 DCC 0 CODE 0
398 DFE 0 CODE 0
399 E0C 0 CODE 0
400 E18 0 CODE 0
402 E4A 0 CODE 0
406 E56 0 CODE 0
407 E64 0 CODE 0
410 E72 0 CODE 0
413 E80 0 CODE 0
414 E8A 0 CODE 0
415 E98 0 CODE 0
418 EA6 0 CODE 0
420 EB2 0 CODE 0
C:\Microchip\sources\common\flge.c
6 2C14 0 CODE 0
7 2C1C 0 CODE 0
8 2C72 0 CODE 0
9 2C7A 0 CODE 0
10 2CD0 0 CODE 0
11 2CEA 0 CODE 0
12 2D04 0 CODE 0
C:\Microchip\sources\common\awtofl.c
36 4092 0 CODE 0
37 40A2 0 CODE 0
38 40AA 0 CODE 0
39 40B8 0 CODE 0
41 40BE 0 CODE 0
C:\Microchip\sources\common\flmul.c
55 1D16 0 CODE 0
56 1D2A 0 CODE 0
57 1D46 0 CODE 0
58 1D5A 0 CODE 0
59 1D76 0 CODE 0
60 1D84 0 CODE 0
61 1D88 0 CODE 0
62 1D92 0 CODE 0
63 1D9A 0 CODE 0
65 1DA0 0 CODE 0
66 1DA6 0 CODE 0
67 1DC0 0 CODE 0
68 1DDA 0 CODE 0
70 1DEA 0 CODE 0
71 1DF2 0 CODE 0
72 1E22 0 CODE 0
73 1E36 0 CODE 0
74 1E4A 0 CODE 0
75 1E52 0 CODE 0
77 1E62 0 CODE 0
78 1E6A 0 CODE 0
79 1E9A 0 CODE 0
80 1EAE 0 CODE 0
81 1EC2 0 CODE 0
82 1ECA 0 CODE 0
C:\Microchip\sources\common\fladd.c
92 1260 0 CODE 0
93 126E 0 CODE 0
94 127C 0 CODE 0
95 12B0 0 CODE 0
96 12C2 0 CODE 0
97 12F6 0 CODE 0
98 1308 0 CODE 0
99 1318 0 CODE 0
100 1320 0 CODE 0
101 1326 0 CODE 0
102 132E 0 CODE 0
103 1334 0 CODE 0
104 133A 0 CODE 0
105 1354 0 CODE 0
106 135A 0 CODE 0
108 1374 0 CODE 0
112 1382 0 CODE 0
113 1396 0 CODE 0
114 139C 0 CODE 0
116 13BE 0 CODE 0
117 13D2 0 CODE 0
115 13D8 0 CODE 0
119 13E8 0 CODE 0
123 13F6 0 CODE 0
124 140A 0 CODE 0
125 1410 0 CODE 0
127 1432 0 CODE 0
128 1446 0 CODE 0
126 144C 0 CODE 0
131 145A 0 CODE 0
133 1462 0 CODE 0
134 147C 0 CODE 0
136 1496 0 CODE 0
138 149E 0 CODE 0
139 14B8 0 CODE 0
141 14D2 0 CODE 0
142 14E2 0 CODE 0
143 1512 0 CODE 0
144 151A 0 CODE 0
145 1534 0 CODE 0
146 154E 0 CODE 0
148 155E 0 CODE 0
C:\Microchip\sources\common\double.c
65 2478 0 CODE 0
66 2492 0 CODE 0
68 24AE 0 CODE 0
69 24B4 0 CODE 0
67 24C8 0 CODE 0
72 2508 0 CODE 0
73 250E 0 CODE 0
74 2528 0 CODE 0
71 253C 0 CODE 0
77 257C 0 CODE 0
78 2582 0 CODE 0
76 2596 0 CODE 0
80 259E 0 CODE 0
81 25A6 0 CODE 0
82 25C0 0 CODE 0
83 25C6 0 CODE 0
84 2608 0 CODE 0
85 2612 0 CODE 0
86 2618 0 CODE 0
control.c
136 4AAC 0 CODE 0
137 4AAE 0 CODE 0
138 4AB0 0 CODE 0
139 4AB4 0 CODE 0
140 4AB6 0 CODE 0
141 4AC6 0 CODE 0
142 4AD4 0 CODE 0
control.c
332 3AAC 0 CODE 0
333 3ABA 0 CODE 0
334 3AC8 0 CODE 0
336 3AD6 0 CODE 0
337 3AD8 0 CODE 0
338 3AF4 0 CODE 0
340 3AF6 0 CODE 0
341 3B04 0 CODE 0
342 3B06 0 CODE 0
343 3B22 0 CODE 0
345 3B24 0 CODE 0
346 3B32 0 CODE 0
347 3B34 0 CODE 0
348 3B50 0 CODE 0
calcfueltypeparameter.c
132 315C 0 CODE 0
133 3166 0 CODE 0
134 3174 0 CODE 0
135 3182 0 CODE 0
136 3190 0 CODE 0
137 319E 0 CODE 0
139 31AC 0 CODE 0
141 31AE 0 CODE 0
142 31BA 0 CODE 0
143 31C8 0 CODE 0
144 31D6 0 CODE 0
145 31E4 0 CODE 0
146 31F2 0 CODE 0
147 3200 0 CODE 0
148 3202 0 CODE 0
149 320E 0 CODE 0
150 321C 0 CODE 0
151 322A 0 CODE 0
152 3238 0 CODE 0
153 3246 0 CODE 0
calcfueltypeparameter.c
107 27D6 0 CODE 0
108 27E2 0 CODE 0
110 2804 0 CODE 0
108 28B6 0 CODE 0
114 28C0 0 CODE 0
116 28CA 0 CODE 0
117 28EC 0 CODE 0
118 2930 0 CODE 0
116 2974 0 CODE 0
calcfueltypeparameter.c
51 1868 0 CODE 0
53 1874 0 CODE 0
54 1882 0 CODE 0
55 1890 0 CODE 0
56 189E 0 CODE 0
57 18AC 0 CODE 0
58 18BA 0 CODE 0
59 18C8 0 CODE 0
60 18D6 0 CODE 0
61 18E4 0 CODE 0
62 18F2 0 CODE 0
64 1900 0 CODE 0
65 190E 0 CODE 0
66 191C 0 CODE 0
67 192A 0 CODE 0
68 1938 0 CODE 0
69 1946 0 CODE 0
70 1954 0 CODE 0
71 1962 0 CODE 0
72 1970 0 CODE 0
75 197E 0 CODE 0
77 1980 0 CODE 0
78 198A 0 CODE 0
79 1998 0 CODE 0
80 19A6 0 CODE 0
81 19B4 0 CODE 0
82 19C2 0 CODE 0
83 19D0 0 CODE 0
84 19DE 0 CODE 0
85 19EC 0 CODE 0
86 19FA 0 CODE 0
87 1A08 0 CODE 0
88 1A16 0 CODE 0
89 1A24 0 CODE 0
91 1A32 0 CODE 0
92 1A40 0 CODE 0
93 1A4E 0 CODE 0
94 1A5C 0 CODE 0
95 1A6A 0 CODE 0
96 1A78 0 CODE 0
97 1A86 0 CODE 0
98 1A94 0 CODE 0
99 1AA2 0 CODE 0
100 1AB0 0 CODE 0
101 1ABE 0 CODE 0
102 1ACC 0 CODE 0
control.c
241 4A20 0 CODE 0
242 4A22 0 CODE 0
243 4A2E 0 CODE 0
244 4A30 0 CODE 0
245 4A32 0 CODE 0
246 4A42 0 CODE 0
247 4A44 0 CODE 0
248 4A46 0 CODE 0
249 4A48 0 CODE 0
250 4A4E 0 CODE 0
etemp.c
56 43B4 0 CODE 0
57 43EC 0 CODE 0
58 43F2 0 CODE 0
59 43FE 0 CODE 0
60 440E 0 CODE 0
etemp.c
81 3BEE 0 CODE 0
83 3BFC 0 CODE 0
84 3C0E 0 CODE 0
83 3C36 0 CODE 0
87 3C46 0 CODE 0
90 3C6E 0 CODE 0
91 3C76 0 CODE 0
93 3C82 0 CODE 0
atemp.c
35 4414 0 CODE 0
36 444C 0 CODE 0
37 4452 0 CODE 0
38 445E 0 CODE 0
39 446E 0 CODE 0
atemp.c
45 3B54 0 CODE 0
46 3B62 0 CODE 0
47 3B74 0 CODE 0
46 3B9C 0 CODE 0
49 3BAC 0 CODE 0
50 3BD4 0 CODE 0
51 3BDC 0 CODE 0
52 3BEC 0 CODE 0
peripherals.c
266 49BC 0 CODE 0
267 49CA 0 CODE 0
270 49D2 0 CODE 0
271 49DC 0 CODE 0
C:\Microchip\sources\pic18\plib\ADC\adcread.c
26 4C9A 0 CODE 0
C:\Microchip\sources\pic18\plib\ADC\adcbusy.c
28 4CF8 0 CODE 0
C:\Microchip\sources\pic18\plib\ADC\adcselchconv.c
117 4C28 0 CODE 0
118 4C3C 0 CODE 0
119 4C3E 0 CODE 0
peripherals.c
71 35CE 0 CODE 0
72 35D2 0 CODE 0
73 35D6 0 CODE 0
75 35DA 0 CODE 0
76 35DE 0 CODE 0
77 35E2 0 CODE 0
78 35E6 0 CODE 0
79 3614 0 CODE 0
80 3618 0 CODE 0
81 3646 0 CODE 0
82 3674 0 CODE 0
88 36A2 0 CODE 0
91 36A6 0 CODE 0
battery.c
39 475E 0 CODE 0
40 47A2 0 CODE 0
linear_interp.c
21 EC2 0 CODE 0
22 ED2 0 CODE 0
24 EF0 0 CODE 0
26 F16 0 CODE 0
27 F2A 0 CODE 0
28 F48 0 CODE 0
29 F66 0 CODE 0
30 F84 0 CODE 0
32 F86 0 CODE 0
33 F9A 0 CODE 0
34 FB8 0 CODE 0
35 FD6 0 CODE 0
39 FF4 0 CODE 0
43 1004 0 CODE 0
47 1022 0 CODE 0
49 103C 0 CODE 0
56 103E 0 CODE 0
57 1072 0 CODE 0
58 10A6 0 CODE 0
67 10B4 0 CODE 0
68 10CC 0 CODE 0
70 10E4 0 CODE 0
74 113A 0 CODE 0
75 11C0 0 CODE 0
76 11C2 0 CODE 0
77 11D2 0 CODE 0
78 11DE 0 CODE 0
79 11F8 0 CODE 0
80 120E 0 CODE 0
81 122C 0 CODE 0
82 122E 0 CODE 0
C:\Microchip\sources\common\aldiv.c
14 262A 0 CODE 0
15 263A 0 CODE 0
16 2642 0 CODE 0
17 2662 0 CODE 0
19 2672 0 CODE 0
20 267A 0 CODE 0
21 269A 0 CODE 0
23 26A2 0 CODE 0
24 26BC 0 CODE 0
25 26CC 0 CODE 0
26 26DC 0 CODE 0
27 26DE 0 CODE 0
28 26F2 0 CODE 0
26 26F8 0 CODE 0
31 2700 0 CODE 0
32 2714 0 CODE 0
33 2748 0 CODE 0
34 2778 0 CODE 0
36 277E 0 CODE 0
37 2792 0 CODE 0
39 279A 0 CODE 0
40 27A4 0 CODE 0
41 27C4 0 CODE 0
C:\Microchip\sources\common\abs.c
6 49EE 0 CODE 0
7 49F6 0 CODE 0
8 4A16 0 CODE 0
9 4A1E 0 CODE 0
peripherals.c
180 4862 0 CODE 0
183 4872 0 CODE 0
185 4882 0 CODE 0
187 4886 0 CODE 0
188 4894 0 CODE 0
190 4898 0 CODE 0
191 489A 0 CODE 0
198 489C 0 CODE 0
peripherals.c
319 4474 0 CODE 0
320 4484 0 CODE 0
322 4494 0 CODE 0
332 44A6 0 CODE 0
336 44B6 0 CODE 0
337 44C6 0 CODE 0
338 44D2 0 CODE 0
C:\Microchip\sources\pic18\plib\Timers\t3open.c
96 4712 0 CODE 0
98 471C 0 CODE 0
101 472E 0 CODE 0
102 4732 0 CODE 0
103 4736 0 CODE 0
106 4738 0 CODE 0
111 473A 0 CODE 0
112 4742 0 CODE 0
114 4746 0 CODE 0
117 4748 0 CODE 0
118 4750 0 CODE 0
120 4754 0 CODE 0
129 4756 0 CODE 0
130 4758 0 CODE 0
132 475A 0 CODE 0
133 475C 0 CODE 0
C:\Microchip\sources\pic18\plib\Timers\t3write.c
16 4C66 0 CODE 0
17 4C6E 0 CODE 0
18 4C72 0 CODE 0
19 4C76 0 CODE 0
control.c
80 4CB8 0 CODE 0
81 4CBC 0 CODE 0
82 4CC0 0 CODE 0
84 4CC4 0 CODE 0
control.c
98 494E 0 CODE 0
99 4952 0 CODE 0
100 4954 0 CODE 0
101 4956 0 CODE 0
102 4958 0 CODE 0
103 4964 0 CODE 0
104 4974 0 CODE 0
105 4984 0 CODE 0
control.c
355 4A50 0 CODE 0
357 4A5E 0 CODE 0
358 4A60 0 CODE 0
359 4A7C 0 CODE 0
peripherals.c
368 4532 0 CODE 0
370 4534 0 CODE 0
371 454A 0 CODE 0
374 4554 0 CODE 0
375 456A 0 CODE 0
368 4574 0 CODE 0
C:\Microchip\sources\pic18\plib\SPI\spi2writ.c
17 4BF0 0 CODE 0
18 4BF4 0 CODE 0
19 4BF6 0 CODE 0
20 4BF8 0 CODE 0
21 4BFC 0 CODE 0
22 4C00 0 CODE 0
25 4C04 0 CODE 0
26 4C08 0 CODE 0
C:\Microchip\sources\pic18\plib\SPI\spi1writ.c
16 4C0C 0 CODE 0
17 4C10 0 CODE 0
18 4C12 0 CODE 0
19 4C14 0 CODE 0
20 4C18 0 CODE 0
21 4C1C 0 CODE 0
24 4C20 0 CODE 0
25 4C24 0 CODE 0
etemp.c
47 3EA8 0 CODE 0
48 3ECE 0 CODE 0
49 3EE0 0 CODE 0
48 3F00 0 CODE 0
51 3F10 0 CODE 0
52 3F18 0 CODE 0
53 3F24 0 CODE 0
C:\Microchip\sources\common\wmul.c
14 4230 0 CODE 0
15 4244 0 CODE 0
16 4266 0 CODE 0
30 4288 0 CODE 0
atemp.c
27 4292 0 CODE 0
28 42A4 0 CODE 0
27 42C4 0 CODE 0
30 42D4 0 CODE 0
31 42E2 0 CODE 0
32 42F2 0 CODE 0
peripherals.c
352 3FA2 0 CODE 0
353 3FB2 0 CODE 0
354 3FC2 0 CODE 0
357 3FD2 0 CODE 0
358 3FD4 0 CODE 0
360 3FD6 0 CODE 0
361 3FD8 0 CODE 0
362 3FE8 0 CODE 0
363 3FF8 0 CODE 0
364 4008 0 CODE 0
365 4018 0 CODE 0
C:\Microchip\sources\pic18\plib\SPI\spi1open.c
65 41CC 0 CODE 0
66 41D0 0 CODE 0
67 41D4 0 CODE 0
68 41DC 0 CODE 0
70 41E4 0 CODE 0
73 41E6 0 CODE 0
74 41E8 0 CODE 0
76 41EA 0 CODE 0
80 41EC 0 CODE 0
81 41EE 0 CODE 0
70 41F0 0 CODE 0
93 420A 0 CODE 0
108 420C 0 CODE 0
112 420E 0 CODE 0
118 4210 0 CODE 0
122 4212 0 CODE 0
86 4214 0 CODE 0
128 4228 0 CODE 0
129 422A 0 CODE 0
135 422C 0 CODE 0
136 422E 0 CODE 0
peripherals.c
202 392E 0 CODE 0
204 395E 0 CODE 0
207 3962 0 CODE 0
208 396A 0 CODE 0
209 3972 0 CODE 0
210 3978 0 CODE 0
211 397E 0 CODE 0
212 3984 0 CODE 0
213 398A 0 CODE 0
214 3990 0 CODE 0
215 3996 0 CODE 0
216 399C 0 CODE 0
218 39A2 0 CODE 0
219 39A4 0 CODE 0
220 39A6 0 CODE 0
221 39A8 0 CODE 0
222 39AA 0 CODE 0
223 39AC 0 CODE 0
224 39AE 0 CODE 0
225 39B0 0 CODE 0
233 39B2 0 CODE 0
235 39C2 0 CODE 0
237 39D2 0 CODE 0
238 39E2 0 CODE 0
261 39F2 0 CODE 0
C:\Microchip\sources\pic18\plib\ADC\adcopen.c
309 4102 0 CODE 0
310 4106 0 CODE 0
311 410A 0 CODE 0
313 410E 0 CODE 0
315 4118 0 CODE 0
319 411C 0 CODE 0
321 4156 0 CODE 0
323 415E 0 CODE 0
324 4160 0 CODE 0
325 4162 0 CODE 0
327 4164 0 CODE 0
328 4166 0 CODE 0
C:\Microchip\sources\pic18\plib\ADC\adcclose.c
25 4CFE 0 CODE 0
26 4D00 0 CODE 0
27 4D02 0 CODE 0
peripherals.c
100 489E 0 CODE 0
101 48A6 0 CODE 0
103 48AA 0 CODE 0
106 48B2 0 CODE 0
109 48B6 0 CODE 0
110 48BE 0 CODE 0
113 48C2 0 CODE 0
114 48C4 0 CODE 0
115 48C6 0 CODE 0
116 48C8 0 CODE 0
117 48CA 0 CODE 0
118 48CC 0 CODE 0
119 48CE 0 CODE 0
120 48D0 0 CODE 0
121 48D2 0 CODE 0
122 48D4 0 CODE 0
123 48D6 0 CODE 0
scheduler.c
65 4CD2 0 CODE 0
67 4CD6 0 CODE 0
68 4CDA 0 CODE 0
peripherals.c
342 4CC6 0 CODE 0
343 4CC8 0 CODE 0
344 4CCA 0 CODE 0
345 4CCC 0 CODE 0
346 4CCE 0 CODE 0
347 4CD0 0 CODE 0
peripherals.c
276 47E8 0 CODE 0
278 47F8 0 CODE 0
279 480A 0 CODE 0
281 480C 0 CODE 0
282 481C 0 CODE 0
288 4824 0 CODE 0
C:\Microchip\sources\pic18\plib\Timers\t0open.c
20 4B4E 0 CODE 0
21 4B58 0 CODE 0
22 4B5C 0 CODE 0
23 4B60 0 CODE 0
25 4B62 0 CODE 0
26 4B6A 0 CODE 0
28 4B6E 0 CODE 0
30 4B70 0 CODE 0
31 4B72 0 CODE 0
C:\Microchip\sources\pic18\plib\Timers\t0write.c
20 4C78 0 CODE 0
22 4C80 0 CODE 0
23 4C84 0 CODE 0
24 4C88 0 CODE 0
scheduler.c
26 2F5E 0 CODE 0
28 2F6E 0 CODE 0
29 2F70 0 CODE 0
28 2F76 0 CODE 0
32 2FA0 0 CODE 0
34 2FAC 0 CODE 0
38 2FBE 0 CODE 0
39 2FE2 0 CODE 0
40 300E 0 CODE 0
41 303A 0 CODE 0
scheduler.c
17 48DA 0 CODE 0
18 48EC 0 CODE 0
17 48F4 0 CODE 0
21 4904 0 CODE 0
22 4914 0 CODE 0
scheduler.c
48 3416 0 CODE 0
49 3436 0 CODE 0
50 3446 0 CODE 0
52 344E 0 CODE 0
54 345E 0 CODE 0
55 347E 0 CODE 0
56 34A6 0 CODE 0
57 34CE 0 CODE 0
system.c
16 4CDC 0 CODE 0
20 4CE4 0 CODE 0
system.c
25 3C84 0 CODE 0
28 3C86 0 CODE 0
29 3C8A 0 CODE 0
30 3C8C 0 CODE 0
33 3C8E 0 CODE 0
34 3C92 0 CODE 0
35 3C94 0 CODE 0
38 3C96 0 CODE 0
39 3C9A 0 CODE 0
40 3C9C 0 CODE 0
43 3C9E 0 CODE 0
44 3CA2 0 CODE 0
45 3CA4 0 CODE 0
48 3CA6 0 CODE 0
49 3CAA 0 CODE 0
50 3CAC 0 CODE 0
53 3CAE 0 CODE 0
54 3CB2 0 CODE 0
55 3CB4 0 CODE 0
58 3CB6 0 CODE 0
59 3CBA 0 CODE 0
60 3CBC 0 CODE 0
63 3CBE 0 CODE 0
64 3CC2 0 CODE 0
65 3CC4 0 CODE 0
68 3CC6 0 CODE 0
69 3CCA 0 CODE 0
70 3CCC 0 CODE 0
74 3CCE 0 CODE 0
75 3CD2 0 CODE 0
76 3CD4 0 CODE 0
25 3CD6 0 CODE 0
interrupts.c
84 5C 0 CODE 0
85 64 0 CODE 0
87 66 0 CODE 0
88 6A 0 CODE 0
89 6E 0 CODE 0
102 74 0 CODE 0
scheduler.c
93 2D40 0 CODE 0
95 2D50 0 CODE 0
96 2D6C 0 CODE 0
98 2D90 0 CODE 0
99 2DAE 0 CODE 0
101 2DD2 0 CODE 0
105 2E28 0 CODE 0
93 2E4A 0 CODE 0
interrupts.c
interrupts.c
27 3D9E 0 CODE 0
37 3DCE 0 CODE 0
38 3DD6 0 CODE 0
39 3DDA 0 CODE 0
41 3DDE 0 CODE 0
42 3DE6 0 CODE 0
43 3DEA 0 CODE 0
64 3DEE 0 CODE 0
injector.c
134 1ADC 0 CODE 0
138 1B04 0 CODE 0
143 1B28 0 CODE 0
147 1B36 0 CODE 0
148 1B3E 0 CODE 0
153 1B56 0 CODE 0
154 1B5E 0 CODE 0
156 1B6E 0 CODE 0
157 1B96 0 CODE 0
158 1B9E 0 CODE 0
160 1BAA 0 CODE 0
161 1BD2 0 CODE 0
162 1BDE 0 CODE 0
163 1BE2 0 CODE 0
164 1BE4 0 CODE 0
165 1C0C 0 CODE 0
166 1C1A 0 CODE 0
168 1C26 0 CODE 0
169 1C4E 0 CODE 0
170 1C5C 0 CODE 0
171 1C6A 0 CODE 0
174 1C7C 0 CODE 0
175 1C8A 0 CODE 0
176 1C98 0 CODE 0
181 1CB2 0 CODE 0
183 1CBA 0 CODE 0
184 1CCA 0 CODE 0
186 1CF0 0 CODE 0
187 1CF6 0 CODE 0
189 1CFE 0 CODE 0
190 1D06 0 CODE 0
194 1D0C 0 CODE 0
injector.c
201 630 0 CODE 0
205 638 0 CODE 0
208 64A 0 CODE 0
215 64E 0 CODE 0
217 686 0 CODE 0
218 69E 0 CODE 0
219 6D2 0 CODE 0
234 706 0 CODE 0
237 714 0 CODE 0
239 730 0 CODE 0
240 73E 0 CODE 0
243 74C 0 CODE 0
244 774 0 CODE 0
246 786 0 CODE 0
247 7AE 0 CODE 0
249 7C6 0 CODE 0
250 7EE 0 CODE 0
253 800 0 CODE 0
256 81A 0 CODE 0
257 826 0 CODE 0
260 86A 0 CODE 0
261 876 0 CODE 0
264 8BA 0 CODE 0
265 8C6 0 CODE 0
269 90A 0 CODE 0
270 954 0 CODE 0
274 964 0 CODE 0
275 974 0 CODE 0
276 992 0 CODE 0
278 994 0 CODE 0
279 9A4 0 CODE 0
280 9E2 0 CODE 0
288 9E4 0 CODE 0
290 A1C 0 CODE 0
295 A3C 0 CODE 0
297 A72 0 CODE 0
298 A80 0 CODE 0
300 ACC 0 CODE 0
C:\Microchip\sources\common\fltol.c
47 36A8 0 CODE 0
48 36B2 0 CODE 0
49 36C4 0 CODE 0
50 36EA 0 CODE 0
51 36EC 0 CODE 0
52 36FC 0 CODE 0
53 3700 0 CODE 0
54 3704 0 CODE 0
55 370E 0 CODE 0
57 3720 0 CODE 0
58 372A 0 CODE 0
60 3730 0 CODE 0
61 3736 0 CODE 0
63 3748 0 CODE 0
64 3752 0 CODE 0
62 3754 0 CODE 0
67 3758 0 CODE 0
68 375E 0 CODE 0
69 376E 0 CODE 0
C:\Microchip\sources\common\flmul.c
55 1EF8 0 CODE 0
56 1F0C 0 CODE 0
57 1F28 0 CODE 0
58 1F3C 0 CODE 0
59 1F58 0 CODE 0
60 1F66 0 CODE 0
61 1F6A 0 CODE 0
62 1F74 0 CODE 0
63 1F7C 0 CODE 0
65 1F82 0 CODE 0
66 1F88 0 CODE 0
67 1FA2 0 CODE 0
68 1FBC 0 CODE 0
70 1FCC 0 CODE 0
71 1FD4 0 CODE 0
72 2004 0 CODE 0
73 2018 0 CODE 0
74 202C 0 CODE 0
75 2034 0 CODE 0
77 2044 0 CODE 0
78 204C 0 CODE 0
79 207C 0 CODE 0
80 2090 0 CODE 0
81 20A4 0 CODE 0
82 20AC 0 CODE 0
C:\Microchip\sources\common\flge.c
6 39F4 0 CODE 0
7 39F8 0 CODE 0
8 3A32 0 CODE 0
9 3A36 0 CODE 0
10 3A70 0 CODE 0
11 3A80 0 CODE 0
12 3A90 0 CODE 0
C:\Microchip\sources\common\awtofl.c
36 47A4 0 CODE 0
37 47AC 0 CODE 0
38 47B0 0 CODE 0
39 47B8 0 CODE 0
41 47BA 0 CODE 0
C:\Microchip\sources\common\double.c
65 3060 0 CODE 0
66 3072 0 CODE 0
68 3084 0 CODE 0
69 3086 0 CODE 0
67 3090 0 CODE 0
72 30B6 0 CODE 0
73 30B8 0 CODE 0
74 30C8 0 CODE 0
71 30D2 0 CODE 0
77 30F8 0 CODE 0
78 30FA 0 CODE 0
76 3104 0 CODE 0
80 3108 0 CODE 0
81 310C 0 CODE 0
82 311C 0 CODE 0
83 3120 0 CODE 0
84 3144 0 CODE 0
85 3148 0 CODE 0
86 314A 0 CODE 0
linear_interp.c
21 158C 0 CODE 0
22 159C 0 CODE 0
24 15B0 0 CODE 0
26 15C8 0 CODE 0
27 15D8 0 CODE 0
28 15EC 0 CODE 0
29 1600 0 CODE 0
30 1614 0 CODE 0
32 1616 0 CODE 0
33 1626 0 CODE 0
34 163A 0 CODE 0
35 164E 0 CODE 0
39 1662 0 CODE 0
43 1672 0 CODE 0
47 1680 0 CODE 0
49 1694 0 CODE 0
56 1696 0 CODE 0
57 16BE 0 CODE 0
58 16E6 0 CODE 0
67 16F4 0 CODE 0
68 1708 0 CODE 0
70 171C 0 CODE 0
74 176E 0 CODE 0
75 17DA 0 CODE 0
76 17DC 0 CODE 0
77 17EC 0 CODE 0
78 17F8 0 CODE 0
79 180C 0 CODE 0
80 1822 0 CODE 0
81 183A 0 CODE 0
82 183C 0 CODE 0
C:\Microchip\sources\common\aldiv.c
14 3780 0 CODE 0
15 3788 0 CODE 0
16 378C 0 CODE 0
17 379C 0 CODE 0
19 37A4 0 CODE 0
20 37A8 0 CODE 0
21 37B8 0 CODE 0
23 37BC 0 CODE 0
24 37CC 0 CODE 0
25 37D8 0 CODE 0
26 37E0 0 CODE 0
27 37E2 0 CODE 0
28 37EC 0 CODE 0
26 37EE 0 CODE 0
31 37F2 0 CODE 0
32 37FC 0 CODE 0
33 3810 0 CODE 0
34 3820 0 CODE 0
36 3822 0 CODE 0
37 382C 0 CODE 0
39 3830 0 CODE 0
40 3836 0 CODE 0
41 3846 0 CODE 0
C:\Microchip\sources\common\abs.c
6 4AFE 0 CODE 0
7 4B02 0 CODE 0
8 4B1C 0 CODE 0
9 4B24 0 CODE 0
peripherals.c
266 4B26 0 CODE 0
267 4B2E 0 CODE 0
270 4B36 0 CODE 0
271 4B40 0 CODE 0
C:\Microchip\sources\pic18\plib\ADC\adcselchconv.c
117 4C40 0 CODE 0
118 4C50 0 CODE 0
119 4C52 0 CODE 0
C:\Microchip\sources\pic18\plib\ADC\adcread.c
26 4CE6 0 CODE 0
C:\Microchip\sources\pic18\plib\ADC\adcbusy.c
28 4D04 0 CODE 0
C:\Microchip\sources\common\fldiv.c
55 3256 0 CODE 0
56 3260 0 CODE 0
57 3272 0 CODE 0
58 327C 0 CODE 0
59 328E 0 CODE 0
60 3294 0 CODE 0
61 3298 0 CODE 0
62 329C 0 CODE 0
63 32A0 0 CODE 0
64 32A2 0 CODE 0
65 32B2 0 CODE 0
66 32B4 0 CODE 0
67 32C4 0 CODE 0
69 32CC 0 CODE 0
70 32D6 0 CODE 0
71 32EA 0 CODE 0
72 32FA 0 CODE 0
74 32FC 0 CODE 0
75 3306 0 CODE 0
76 330A 0 CODE 0
linear_interp.c
95 2E54 0 CODE 0
98 2E78 0 CODE 0
99 2E7E 0 CODE 0
101 2EA6 0 CODE 0
102 2EBA 0 CODE 0
104 2EBC 0 CODE 0
106 2F54 0 CODE 0
C:\Microchip\sources\common\lmul.c
4 4588 0 CODE 0
7 4598 0 CODE 0
8 459C 0 CODE 0
9 45AC 0 CODE 0
10 45B6 0 CODE 0
11 45C0 0 CODE 0
12 45CC 0 CODE 0
13 45DC 0 CODE 0
control.c
315 401A 0 CODE 0
316 4026 0 CODE 0
317 4032 0 CODE 0
319 405A 0 CODE 0
321 4062 0 CODE 0
323 407A 0 CODE 0
324 4086 0 CODE 0
325 4088 0 CODE 0
C:\Microchip\sources\pic18\plib\CCP\ep1read.c
55 4B74 0 CODE 0
58 4B7A 0 CODE 0
62 4B7E 0 CODE 0
64 4B84 0 CODE 0
65 4B88 0 CODE 0
67 4B8C 0 CODE 0
68 4B94 0 CODE 0
